0-angry=47**aa33.78.1.16.34.33.78.1.16.34_ab_ac_ba50_bb6.1_bc150.500.8.0.1_bd6_be180_ca59.0.30.59.35.30.34.0.0_cb0_da1.0.0.100_db_dd9.3.30.50.50.50_dh2.30.50.50.2_di7_qa_qb_dc1.1.1.1.1_eh1.E5AD7E_ea34.E5AD7E.E5AD7E.27.0.0_ec18.41.E5AD7E.E5AD7E.27.35.65.1_ed39.70.0.1.E5AD7E.27_ef_eg_r00_fa7.50.50.50.40.65.56_fb6_fh_fc0.E5AD7E.55.0.E5AD7E.55.50.61.61.50.50.50_fd16.0.25.E5AD7E.56_fe50.50_ff0000000000_fg1.45_pa0.0.0.0.40.50.85.85.0.0_t00_pb_pc_pd_pe_ga0_gb0_gc0.0_ge0000000000_gh_gf_gg_gd10000000_ha92.92_hb49.1.44.90_hc1.59.39.1.59.39_hd4.1.49.49_ia_if_ib_id_ic3.55.BF282D.BF282D.0_jc_ie_ja_jb_jd2.BF282D.BF282D.57_je2.BF282D.BF282D.57_jf_jg_ka12.55.BF282D.55.0_kb12.55.BF282D.55_kc_kd_ke_kf_la_lb_oa_os_ob_oc_od_oe_of_lc_m00_n00_s00_og_oh_oo_op_oq_or_om_on_ok_ol_oi_oj_ad0.0.0.0.0.0.0.0.0.0
0-awkward=47**aa6.93.0.16.50.6.93.0.16.50_ab_ac_ba50_bb5.1_bc150.500.8.0.1_bd5_be180_ca59.0.30.59.35.30.34.0.0_cb0_da1.0.0.100_db_dd9.3.30.50.50.50_dh2.30.50.50.2_di7_qa_qb_dc1.1.1.1.1_eh1.E5AD7E_ea34.E5AD7E.E5AD7E.27.0.0_ec18.41.E5AD7E.E5AD7E.27.35.65.1_ed39.70.0.1.E5AD7E.27_ef_eg_r00_fa7.50.50.50.40.65.56_fb6_fh_fc0.E5AD7E.55.0.E5AD7E.55.50.61.61.50.50.50_fd16.0.25.E5AD7E.56_fe50.50_ff0000000000_fg1.45_pa0.0.0.0.40.50.85.85.0.0_t00_pb_pc_pd_pe_ga0_gb0_gc15.0_ge0000000000_gh_gf_gg_gd10000000_ha87.87_hb97.1.70.60_hc0.59.39.0.59.39_hd9.1.49.49_ia_if_ib_id_ic3.55.BF282D.BF282D.0_jc_ie_ja_jb_jd2.BF282D.BF282D.57_je2.BF282D.BF282D.57_jf_jg_ka12.55.BF282D.55.0_kb12.55.BF282D.55_kc_kd_ke_kf_la_lb_oa_os_ob_oc_od_oe_of_lc_m00_n00_s00_og_oh_oo_op_oq_or_om_on_ok_ol_oi_oj_ad0.0.0.0.0.0.0.0.0.0
0-calm=47**aa8.99.0.16.50.8.98.1.16.50_ab_ac_ba50_bb5.1_bc150.500.8.0.1_bd5_be180_ca59.0.30.59.35.30.34.0.0_cb0_da1.0.0.100_db_dd9.3.30.50.50.50_dh2.30.50.50.2_di7_qa_qb_dc1.1.1.1.1_eh1.E5AD7E_ea34.E5AD7E.E5AD7E.27.0.0_ec18.41.E5AD7E.E5AD7E.27.35.65.1_ed39.70.0.1.E5AD7E.27_ef_eg_r00_fa7.50.50.50.40.65.56_fb6_fh_fc0.E5AD7E.55.0.E5AD7E.55.50.61.61.50.50.50_fd16.0.25.E5AD7E.56_fe50.50_ff0000000000_fg1.45_pa0.0.0.0.40.50.85.85.0.0_t00_pb_pc_pd_pe_ga0_gb0_gc0.0_ge0000000000_gh_gf_gg_gd10000000_ha88.88_hb49.1.44.90_hc0.59.39.0.59.39_hd0.1.49.49_ia_if_ib_id_ic3.55.BF282D.BF282D.0_jc_ie_ja_jb_jd2.BF282D.BF282D.57_je2.BF282D.BF282D.57_jf_jg_ka12.55.BF282D.55.0_kb12.55.BF282D.55_kc_kd_ke_kf_la_lb_oa_os_ob_oc_od_oe_of_lc_m00_n00_s00_og_oh_oo_op_oq_or_om_on_ok_ol_oi_oj_ad0.0.0.0.0.0.0.0.0.0
0-embarrassed=47**aa8.75.1.16.50.8.75.1.16.50_ab_ac_ba50_bb4.1_bc150.500.8.0.1_bd4_be180_ca59.0.30.59.35.30.34.0.0_cb0_da1.0.0.100_db_dd9.3.30.50.50.50_dh2.30.50.50.2_di7_qa_qb_dc1.1.1.1.1_eh1.E5AD7E_ea34.E5AD7E.E5AD7E.27.0.0_ec18.41.E5AD7E.E5AD7E.27.35.65.1_ed39.70.0.1.E5AD7E.27_ef_eg_r00_fa7.50.50.50.40.65.56_fb6_fh_fc0.E5AD7E.55.0.E5AD7E.55.50.61.61.50.50.50_fd16.0.25.E5AD7E.56_fe50.50_ff0000000000_fg1.45_pa0.0.0.0.40.50.85.85.0.0_t00_pb_pc_pd_pe_ga0_gb0_gc15.0_ge0000000000_gh_gf_gg_gd10000000_ha80.80_hb49.1.23.75_hc0.59.39.0.59.39_hd10.1.49.49_ia_if_ib_id_ic3.55.BF282D.BF282D.0_jc_ie_ja_jb_jd2.BF282D.BF282D.57_je2.BF282D.BF282D.57_jf_jg_ka12.55.BF282D.55.0_kb12.55.BF282D.55_kc_kd_ke_kf_la_lb_oa_os_ob_oc_od_oe_of_lc_m00_n00_s00_og_oh_oo_op_oq_or_om_on_ok_ol_oi_oj_ad0.0.0.0.0.0.0.0.0.0
0-happy=47**aa13.45.1.42.51.13.45.1.42.51_ab_ac_ba50_bb6.1_bc150.500.8.0.1_bd6_be180_ca59.0.30.59.35.30.34.0.0_cb0_da1.0.0.100_db_dd9.3.30.50.50.50_dh2.30.50.50.2_di7_qa_qb_dc1.1.1.1.1_eh1.E5AD7E_ea34.E5AD7E.E5AD7E.27.0.0_ec18.41.E5AD7E.E5AD7E.27.35.65.1_ed39.70.0.1.E5AD7E.27_ef_eg_r00_fa7.50.50.50.40.65.56_fb6_fh_fc0.E5AD7E.55.0.E5AD7E.55.50.61.61.50.50.50_fd16.0.25.E5AD7E.56_fe50.50_ff0000000000_fg1.45_pa0.0.0.0.40.50.85.85.0.0_t00_pb_pc_pd_pe_ga0_gb0_gc0.0_ge0000000000_gh_gf_gg_gd10000000_ha95.95_hb49.1.44.95_hc1.59.39.1.59.39_hd25.1.49.49_ia_if_ib_id_ic3.55.BF282D.BF282D.0_jc_ie_ja_jb_jd2.BF282D.BF282D.57_je2.BF282D.BF282D.57_jf_jg_ka12.55.BF282D.55.0_kb12.55.BF282D.55_kc_kd_ke_kf_la_lb_oa_os_ob_oc_od_oe_of_lc_m00_n00_s00_og_oh_oo_op_oq_or_om_on_ok_ol_oi_oj_ad0.0.0.0.0.0.0.0.0.0
0-horny=47**aa9.95.0.16.50.9.95.0.16.50_ab_ac_ba50_bb5.1_bc150.500.8.0.1_bd5_be180_ca59.0.30.59.35.30.34.0.0_cb0_da1.0.0.100_db_dd9.3.30.50.50.50_dh2.30.50.50.2_di7_qa_qb_dc1.1.1.1.1_eh1.E5AD7E_ea34.E5AD7E.E5AD7E.27.0.0_ec18.41.E5AD7E.E5AD7E.27.35.65.1_ed39.70.0.1.E5AD7E.27_ef_eg_r00_fa7.50.50.50.40.65.56_fb6_fh_fc0.E5AD7E.55.0.E5AD7E.55.50.61.61.50.50.50_fd16.0.25.E5AD7E.56_fe50.50_ff0000000000_fg1.45_pa0.0.0.0.40.50.85.85.0.0_t00_pb_pc_pd_pe_ga0_gb0_gc15.0_ge0000000000_gh_gf_gg_gd10000000_ha75.75_hb50.1.40.60_hc0.59.39.0.59.39_hd17.1.49.49_ia_if_ib_id_ic3.55.BF282D.BF282D.0_jc_ie_ja_jb_jd2.BF282D.BF282D.57_je2.BF282D.BF282D.57_jf_jg_ka12.55.BF282D.55.0_kb12.55.BF282D.55_kc_kd_ke_kf_la_lb_oa_os_ob_oc_od_oe_of_lc_m00_n00_s00_og_oh_oo_op_oq_or_om_on_ok_ol_oi_oj_ad0.0.0.0.0.0.0.0.0.0
0-interested=47**aa7.97.1.16.50.7.97.1.16.50_ab_ac_ba50_bb5.1_bc150.500.8.0.1_bd5_be180_ca59.0.30.59.35.30.34.0.0_cb0_da1.0.0.100_db_dd9.3.30.50.50.50_dh2.30.50.50.2_di7_qa_qb_dc1.1.1.1.1_eh1.E5AD7E_ea34.E5AD7E.E5AD7E.27.0.0_ec18.41.E5AD7E.E5AD7E.27.35.65.1_ed39.70.0.1.E5AD7E.27_ef_eg_r00_fa7.50.50.50.40.65.56_fb6_fh_fc0.E5AD7E.55.0.E5AD7E.55.50.61.61.50.50.50_fd16.0.25.E5AD7E.56_fe50.50_ff0000000000_fg1.45_pa0.0.0.0.40.50.85.85.0.0_t00_pb_pc_pd_pe_ga0_gb0_gc10.0_ge0000000000_gh_gf_gg_gd10000000_ha82.82_hb49.1.44.85_hc0.59.39.0.59.39_hd3.1.49.49_ia_if_ib_id_ic3.55.BF282D.BF282D.0_jc_ie_ja_jb_jd2.BF282D.BF282D.57_je2.BF282D.BF282D.57_jf_jg_ka12.55.BF282D.55.0_kb12.55.BF282D.55_kc_kd_ke_kf_la_lb_oa_os_ob_oc_od_oe_of_lc_m00_n00_s00_og_oh_oo_op_oq_or_om_on_ok_ol_oi_oj_ad0.0.0.0.0.0.0.0.0.0
0-lost=47**aa9.85.1.16.50.9.75.1.16.50_ab_ac_ba50_bb4.1_bc150.500.8.0.1_bd4_be180_ca59.0.30.59.35.30.34.0.0_cb0_da1.0.0.100_db_dd9.3.30.50.50.50_dh2.30.50.50.2_di7_qa_qb_dc1.1.1.1.1_eh1.E5AD7E_ea34.E5AD7E.E5AD7E.27.0.0_ec18.41.E5AD7E.E5AD7E.27.35.65.1_ed39.70.0.1.E5AD7E.27_ef_eg_r00_fa7.50.50.50.40.65.56_fb6_fh_fc0.E5AD7E.55.0.E5AD7E.55.50.61.61.50.50.50_fd16.0.25.E5AD7E.56_fe50.50_ff0000000000_fg1.45_pa0.0.0.0.40.50.85.85.0.0_t00_pb_pc_pd_pe_ga0_gb0_gc0.0_ge0000000000_gh_gf_gg_gd10000000_ha80.80_hb49.1.50.75_hc3.59.39.3.59.39_hd38.1.49.49_ia_if_ib_id_ic3.55.BF282D.BF282D.0_jc_ie_ja_jb_jd2.BF282D.BF282D.57_je2.BF282D.BF282D.57_jf_jg_ka12.55.BF282D.55.0_kb12.55.BF282D.55_kc_kd_ke_kf_la_lb_oa_os_ob_oc_od_oe_of_lc_m00_n00_s00_og_oh_oo_op_oq_or_om_on_ok_ol_oi_oj_ad0.0.0.0.0.0.0.0.0.0
0-nervous=47**aa8.75.1.16.50.8.75.1.16.50_ab_ac_ba50_bb4.1_bc150.500.8.0.1_bd4_be180_ca59.0.30.59.35.30.34.0.0_cb0_da1.0.0.100_db_dd9.3.30.50.50.50_dh2.30.50.50.2_di7_qa_qb_dc1.1.1.1.1_eh1.E5AD7E_ea34.E5AD7E.E5AD7E.27.0.0_ec18.41.E5AD7E.E5AD7E.27.35.65.1_ed39.70.0.1.E5AD7E.27_ef_eg_r00_fa7.50.50.50.40.65.56_fb6_fh_fc0.E5AD7E.55.0.E5AD7E.55.50.61.61.50.50.50_fd16.0.25.E5AD7E.56_fe50.50_ff0000000000_fg1.45_pa0.0.0.0.40.50.85.85.0.0_t00_pb_pc_pd_pe_ga0_gb0_gc0.0_ge0000000000_gh_gf_gg_gd10000000_ha88.88_hb49.1.10.70_hc3.59.39.3.59.39_hd9.1.49.49_ia_if_ib_id_ic3.55.BF282D.BF282D.0_jc_ie_ja_jb_jd2.BF282D.BF282D.57_je2.BF282D.BF282D.57_jf_jg_ka12.55.BF282D.55.0_kb12.55.BF282D.55_kc_kd_ke_kf_la_lb_oa_os_ob_oc_od_oe_of_lc_m00_n00_s00_og_oh_oo_op_oq_or_om_on_ok_ol_oi_oj_ad0.0.0.0.0.0.0.0.0.0
0-sad=47**aa11.95.1.16.50.11.95.1.16.50_ab_ac_ba50_bb5.1_bc150.500.8.0.1_bd5_be180_ca59.0.30.59.35.30.34.0.0_cb0_da1.0.0.100_db_dd9.3.30.50.50.50_dh2.30.50.50.2_di7_qa_qb_dc1.1.1.1.1_eh1.E5AD7E_ea34.E5AD7E.E5AD7E.27.0.0_ec18.41.E5AD7E.E5AD7E.27.35.65.1_ed39.70.0.1.E5AD7E.27_ef_eg_r00_fa7.50.50.50.40.65.56_fb6_fh_fc0.E5AD7E.55.0.E5AD7E.55.50.61.61.50.50.50_fd16.0.25.E5AD7E.56_fe50.50_ff0000000000_fg1.45_pa0.0.0.0.40.50.85.85.0.0_t00_pb_pc_pd_pe_ga0_gb0_gc0.0_ge0000000000_gh_gf_gg_gd10000000_ha78.78_hb50.1.50.70_hc3.59.39.3.59.39_hd5.1.49.49_ia_if_ib_id_ic3.55.BF282D.BF282D.0_jc_ie_ja_jb_jd2.BF282D.BF282D.57_je2.BF282D.BF282D.57_jf_jg_ka12.55.BF282D.55.0_kb12.55.BF282D.55_kc_kd_ke_kf_la_lb_oa_os_ob_oc_od_oe_of_lc_m00_n00_s00_og_oh_oo_op_oq_or_om_on_ok_ol_oi_oj_ad0.0.0.0.0.0.0.0.0.0
0-shocked=47**aa68.39.1.26.27.68.39.1.26.27_ab_ac_ba50_bb4.1_bc150.500.8.0.1_bd4_be180_ca59.0.30.59.35.30.34.0.0_cb0_da1.0.0.100_db_dd9.3.30.50.50.50_dh2.30.50.50.2_di7_qa_qb_dc1.1.1.1.1_eh1.E5AD7E_ea34.E5AD7E.E5AD7E.27.0.0_ec18.41.E5AD7E.E5AD7E.27.35.65.1_ed39.70.0.1.E5AD7E.27_ef_eg_r00_fa7.50.50.50.40.65.56_fb6_fh_fc0.E5AD7E.55.0.E5AD7E.55.50.61.61.50.50.50_fd16.0.25.E5AD7E.56_fe50.50_ff0000000000_fg1.45_pa0.0.0.0.40.50.85.85.0.0_t00_pb_pc_pd_pe_ga0_gb0_gc15.0_ge0000000000_gh_gf_gg_gd10000000_ha96.96_hb49.1.40.54_hc0.59.39.0.59.39_hd40.1.60.60_ia_if_ib_id_ic3.55.BF282D.BF282D.0_jc_ie_ja_jb_jd2.BF282D.BF282D.57_je2.BF282D.BF282D.57_jf_jg_ka12.55.BF282D.55.0_kb12.55.BF282D.55_kc_kd_ke_kf_la_lb_oa_os_ob_oc_od_oe_of_lc_m00_n00_s00_og_oh_oo_op_oq_or_om_on_ok_ol_oi_oj_ad0.0.0.0.0.0.0.0.0.0
0-stunned=47**aa6.80.1.16.34.6.80.1.16.34_ab_ac_ba50_bb5.1_bc150.500.8.0.1_bd5_be180_ca59.0.30.59.35.30.34.0.0_cb0_da1.0.0.100_db_dd9.3.30.50.50.50_dh2.30.50.50.2_di7_qa_qb_dc1.1.1.1.1_eh1.E5AD7E_ea34.E5AD7E.E5AD7E.27.0.0_ec18.41.E5AD7E.E5AD7E.27.35.65.1_ed39.70.0.1.E5AD7E.27_ef_eg_r00_fa7.50.50.50.40.65.56_fb6_fh_fc0.E5AD7E.55.0.E5AD7E.55.50.61.61.50.50.50_fd16.0.25.E5AD7E.56_fe50.50_ff0000000000_fg1.45_pa0.0.0.0.40.50.85.85.0.0_t00_pb_pc_pd_pe_ga0_gb0_gc10.0_ge0000000000_gh_gf_gg_gd10000000_ha97.97_hb49.1.35.75_hc0.59.39.0.59.39_hd38.1.49.49_ia_if_ib_id_ic3.55.BF282D.BF282D.0_jc_ie_ja_jb_jd2.BF282D.BF282D.57_je2.BF282D.BF282D.57_jf_jg_ka12.55.BF282D.55.0_kb12.55.BF282D.55_kc_kd_ke_kf_la_lb_oa_os_ob_oc_od_oe_of_lc_m00_n00_s00_og_oh_oo_op_oq_or_om_on_ok_ol_oi_oj_ad0.0.0.0.0.0.0.0.0.0
0-strip=47**aa24.92.1.45.50.24.92.1.45.50_ab_ac_ba50_bb4.1_bc150.500.8.0.1_bd4_be180_ca59.0.30.59.35.30.34.0.0_cb0_da1.0.0.100_db_dd9.3.30.50.50.50_dh2.30.50.50.2_di7_qa_qb_dc1.1.1.1.1_eh1.E5AD7E_ea34.E5AD7E.E5AD7E.27.0.0_ec18.41.E5AD7E.E5AD7E.27.35.65.1_ed39.70.0.1.E5AD7E.27_ef_eg_r00_fa7.50.50.50.40.65.56_fb6_fh_fc0.E5AD7E.55.0.E5AD7E.55.50.61.61.50.50.50_fd16.0.25.E5AD7E.56_fe50.50_ff0000000000_fg1.45_pa0.0.0.0.40.50.85.85.0.0_t00_pb_pc_pd_pe_ga0_gb0_gc0.0_ge0000000000_gh_gf_gg_gd10000000_ha80.80_hb49.1.50.75_hc3.59.39.3.59.39_hd38.1.49.49_ia_if_ib_id_ic3.55.BF282D.BF282D.0_jc_ie_ja_jb_jd_je_jf_jg_ka12.55.BF282D.55.0_kb12.55.BF282D.55_kc_kd_ke_kf_la_lb_oa_os_ob_oc_od_oe_of_lc_m00_n00_s00_og_oh_oo_op_oq_or_om_on_ok_ol_oi_oj_ad0.0.0.0.0.0.0.0.0.0
0-victory=47**aa82.8.1.39.51.82.8.1.39.51_ab_ac_ba50_bb6.1_bc150.500.8.0.1_bd6_be180_ca59.0.30.59.35.30.34.0.0_cb0_da1.0.0.100_db_dd9.3.30.50.50.50_dh2.30.50.50.2_di7_qa_qb_dc1.1.1.1.1_eh1.E5AD7E_ea34.E5AD7E.E5AD7E.27.0.0_ec18.41.E5AD7E.E5AD7E.27.35.65.1_ed39.70.0.1.E5AD7E.27_ef_eg_r00_fa7.50.50.50.40.65.56_fb6_fh_fc0.E5AD7E.55.0.E5AD7E.55.50.61.61.50.50.50_fd16.0.25.E5AD7E.56_fe50.50_ff0000000000_fg1.45_pa0.0.0.0.40.50.85.85.0.0_t00_pb_pc_pd_pe_ga0_gb0_gc0.0_ge0000000000_gh_gf_gg_gd10000000_ha100.100_hb49.1.44.95_hc0.59.39.0.59.39_hd34.1.65.65_ia_if_ib_id_ic3.55.BF282D.BF282D.0_jc_ie_ja_jb_jd2.BF282D.BF282D.57_je2.BF282D.BF282D.57_jf_jg_ka12.55.BF282D.55.0_kb12.55.BF282D.55_kc_kd_ke_kf_la_lb_oa_os_ob_oc_od_oe_of_lc_m00_n00_s00_og_oh_oo_op_oq_or_om_on_ok_ol_oi_oj_ad0.0.0.0.0.0.0.0.0.0

1-angry=47**aa8.66.1.16.46.36.76.1.16.23_ab_ac_ba50_bb6.1_bc150.500.8.0.1_bd6_be180_ca59.0.30.59.35.30.34.0.0_cb0_da1.0.0.100_db_dd10.3.30.50.50.50_dh2.30.50.50.2_di7_qa_qb_dc1.1.1.1.1_eh1.E5AD7E_ea34.E5AD7E.E5AD7E.27.0.0_ec18.41.E5AD7E.E5AD7E.27.35.65.1_ed39.70.0.1.E5AD7E.27_ef_eg_r00_fa7.50.50.50.40.65.56_fb6_fh_fc0.E5AD7E.55.0.E5AD7E.55.50.61.61.50.50.50_fd16.0.25.E5AD7E.56_fe50.50_ff0000000000_fg1.45_pa0.0.0.0.40.50.85.85.0.0_t00_pb_pc_pd_pe_ga0_gb0_gc20.0_ge0000000000_gh_gf_gg_gd10000000_ha92.92_hb49.1.44.90_hc1.59.39.1.59.39_hd4.1.49.49_ia_if_ib_id_ic3.55.BF282D.BF282D.0_jc_ie_ja_jb_jd_je_jf_jg_ka12.55.BF282D.55.0_kb12.55.BF282D.55_kc_kd_ke_kf_la_lb_oa_os_ob_oc_od_oe_of_lc_m00_n00_s00_og_oh_oo_op_oq_or_om_on_ok_ol_oi_oj_ad0.0.0.0.0.0.0.0.0.0
1-awkward=47**aa6.70.1.16.50.6.70.1.16.50_ab_ac_ba50_bb4.1_bc150.500.8.0.1_bd4_be180_ca59.0.30.59.35.30.34.0.0_cb0_da1.0.0.100_db_dd10.3.30.50.50.50_dh2.30.50.50.2_di7_qa_qb_dc1.1.1.1.1_eh1.E5AD7E_ea34.E5AD7E.E5AD7E.27.0.0_ec18.41.E5AD7E.E5AD7E.27.35.65.1_ed39.70.0.1.E5AD7E.27_ef_eg_r00_fa7.50.50.50.40.65.56_fb6_fh_fc0.E5AD7E.55.0.E5AD7E.55.50.61.61.50.50.50_fd16.0.25.E5AD7E.56_fe50.50_ff0000000000_fg1.45_pa0.0.0.0.40.50.85.85.0.0_t00_pb_pc_pd_pe_ga0_gb0_gc30.0_ge0000000000_gh_gf_gg_gd10000000_ha87.87_hb97.1.70.60_hc0.59.39.0.59.39_hd9.1.49.49_ia_if_ib_id_ic3.55.BF282D.BF282D.0_jc_ie_ja_jb_jd_je_jf_jg_ka12.55.BF282D.55.0_kb12.55.BF282D.55_kc_kd_ke_kf_la_lb_oa_os_ob_oc_od_oe_of_lc_m00_n00_s00_og_oh_oo_op_oq_or_om_on_ok_ol_oi_oj_ad0.0.0.0.0.0.0.0.0.0
1-calm=47**aa6.70.1.16.50.6.96.1.16.50_ab_ac_ba50_bb5.1_bc150.500.8.0.1_bd5_be180_ca59.0.30.59.35.30.34.0.0_cb0_da1.0.0.100_db_dd10.3.30.50.50.50_dh2.30.50.50.2_di7_qa_qb_dc1.1.1.1.1_eh1.E5AD7E_ea34.E5AD7E.E5AD7E.27.0.0_ec18.41.E5AD7E.E5AD7E.27.35.65.1_ed39.70.0.1.E5AD7E.27_ef_eg_r00_fa7.50.50.50.40.65.56_fb6_fh_fc0.E5AD7E.55.0.E5AD7E.55.50.61.61.50.50.50_fd16.0.25.E5AD7E.56_fe50.50_ff0000000000_fg1.45_pa0.0.0.0.40.50.85.85.0.0_t00_pb_pc_pd_pe_ga0_gb0_gc20.0_ge0000000000_gh_gf_gg_gd10000000_ha88.88_hb49.1.44.90_hc0.59.39.0.59.39_hd0.1.49.49_ia_if_ib_id_ic3.55.BF282D.BF282D.0_jc_ie_ja_jb_jd_je_jf_jg_ka12.55.BF282D.55.0_kb12.55.BF282D.55_kc_kd_ke_kf_la_lb_oa_os_ob_oc_od_oe_of_lc_m00_n00_s00_og_oh_oo_op_oq_or_om_on_ok_ol_oi_oj_ad0.0.0.0.0.0.0.0.0.0
1-embarrassed=47**aa8.67.1.16.50.8.67.1.16.50_ab_ac_ba50_bb4.1_bc150.500.8.0.1_bd4_be180_ca59.0.30.59.35.30.34.0.0_cb0_da1.0.0.100_db_dd10.3.30.50.50.50_dh2.30.50.50.2_di7_qa_qb_dc1.1.1.1.1_eh1.E5AD7E_ea34.E5AD7E.E5AD7E.27.0.0_ec18.41.E5AD7E.E5AD7E.27.35.65.1_ed39.70.0.1.E5AD7E.27_ef_eg_r00_fa7.50.50.50.40.65.56_fb6_fh_fc0.E5AD7E.55.0.E5AD7E.55.50.61.61.50.50.50_fd16.0.25.E5AD7E.56_fe50.50_ff0000000000_fg1.45_pa0.0.0.0.40.50.85.85.0.0_t00_pb_pc_pd_pe_ga0_gb0_gc30.0_ge0000000000_gh_gf_gg_gd10000000_ha80.80_hb49.1.23.75_hc0.59.39.0.59.39_hd10.1.49.49_ia_if_ib_id_ic3.55.BF282D.BF282D.0_jc_ie_ja_jb_jd_je_jf_jg_ka12.55.BF282D.55.0_kb12.55.BF282D.55_kc_kd_ke_kf_la_lb_oa_os_ob_oc_od_oe_of_lc_m00_n00_s00_og_oh_oo_op_oq_or_om_on_ok_ol_oi_oj_ad0.0.0.0.0.0.0.0.0.0
1-happy=47**aa8.68.1.42.51.14.45.1.42.51_ab_ac_ba50_bb6.1_bc150.500.8.0.1_bd6_be180_ca59.0.30.59.35.30.34.0.0_cb0_da1.0.0.100_db_dd10.3.30.50.50.50_dh2.30.50.50.2_di7_qa_qb_dc1.1.1.1.1_eh1.E5AD7E_ea34.E5AD7E.E5AD7E.27.0.0_ec18.41.E5AD7E.E5AD7E.27.35.65.1_ed39.70.0.1.E5AD7E.27_ef_eg_r00_fa7.50.50.50.40.65.56_fb6_fh_fc0.E5AD7E.55.0.E5AD7E.55.50.61.61.50.50.50_fd16.0.25.E5AD7E.56_fe50.50_ff0000000000_fg1.45_pa0.0.0.0.40.50.85.85.0.0_t00_pb_pc_pd_pe_ga0_gb0_gc20.0_ge0000000000_gh_gf_gg_gd10000000_ha95.95_hb49.1.44.95_hc1.59.39.1.59.39_hd25.1.49.49_ia_if_ib_id_ic3.55.BF282D.BF282D.0_jc_ie_ja_jb_jd_je_jf_jg_ka12.55.BF282D.55.0_kb12.55.BF282D.55_kc_kd_ke_kf_la_lb_oa_os_ob_oc_od_oe_of_lc_m00_n00_s00_og_oh_oo_op_oq_or_om_on_ok_ol_oi_oj_ad0.0.0.0.0.0.0.0.0.0
1-horny=47**aa9.70.1.16.50.9.95.1.16.50_ab_ac_ba50_bb5.1_bc150.500.8.0.1_bd5_be180_ca59.0.30.59.35.30.34.0.0_cb0_da1.0.0.100_db_dd10.3.30.50.50.50_dh2.30.50.50.2_di7_qa_qb_dc1.1.1.1.1_eh1.E5AD7E_ea34.E5AD7E.E5AD7E.27.0.0_ec18.41.E5AD7E.E5AD7E.27.35.65.1_ed39.70.0.1.E5AD7E.27_ef_eg_r00_fa7.50.50.50.40.65.56_fb6_fh_fc0.E5AD7E.55.0.E5AD7E.55.50.61.61.50.50.50_fd16.0.25.E5AD7E.56_fe50.50_ff0000000000_fg1.45_pa0.0.0.0.40.50.85.85.0.0_t00_pb_pc_pd_pe_ga0_gb0_gc30.0_ge0000000000_gh_gf_gg_gd10000000_ha75.75_hb50.1.40.60_hc0.59.39.0.59.39_hd17.1.49.49_ia_if_ib_id_ic3.55.BF282D.BF282D.0_jc_ie_ja_jb_jd_je_jf_jg_ka12.55.BF282D.55.0_kb12.55.BF282D.55_kc_kd_ke_kf_la_lb_oa_os_ob_oc_od_oe_of_lc_m00_n00_s00_og_oh_oo_op_oq_or_om_on_ok_ol_oi_oj_ad0.0.0.0.0.0.0.0.0.0
1-interested=47**aa7.70.1.16.50.7.86.0.16.50_ab_ac_ba50_bb5.1_bc150.500.8.0.1_bd5_be180_ca59.0.30.59.35.30.34.0.0_cb0_da1.0.0.100_db_dd10.3.30.50.50.50_dh2.30.50.50.2_di7_qa_qb_dc1.1.1.1.1_eh1.E5AD7E_ea34.E5AD7E.E5AD7E.27.0.0_ec18.41.E5AD7E.E5AD7E.27.35.65.1_ed39.70.0.1.E5AD7E.27_ef_eg_r00_fa7.50.50.50.40.65.56_fb6_fh_fc0.E5AD7E.55.0.E5AD7E.55.50.61.61.50.50.50_fd16.0.25.E5AD7E.56_fe50.50_ff0000000000_fg1.45_pa0.0.0.0.40.50.85.85.0.0_t00_pb_pc_pd_pe_ga0_gb0_gc25.0_ge0000000000_gh_gf_gg_gd10000000_ha82.82_hb49.1.44.85_hc0.59.39.0.59.39_hd3.1.49.49_ia_if_ib_id_ic3.55.BF282D.BF282D.0_jc_ie_ja_jb_jd_je_jf_jg_ka12.55.BF282D.55.0_kb12.55.BF282D.55_kc_kd_ke_kf_la_lb_oa_os_ob_oc_od_oe_of_lc_m00_n00_s00_og_oh_oo_op_oq_or_om_on_ok_ol_oi_oj_ad0.0.0.0.0.0.0.0.0.0
1-lost=47**aa6.91.1.16.50.6.91.1.16.50_ab_ac_ba50_bb4.1_bc150.500.8.0.1_bd4_be180_ca59.0.30.59.35.30.34.0.0_cb0_da1.0.0.100_db_dd10.3.30.50.50.50_dh2.30.50.50.2_di7_qa_qb_dc1.1.1.1.1_eh1.E5AD7E_ea34.E5AD7E.E5AD7E.27.0.0_ec18.41.E5AD7E.E5AD7E.27.35.65.1_ed39.70.0.1.E5AD7E.27_ef_eg_r00_fa7.50.50.50.40.65.56_fb6_fh_fc0.E5AD7E.55.0.E5AD7E.55.50.61.61.50.50.50_fd16.0.25.E5AD7E.56_fe50.50_ff0000000000_fg1.45_pa0.0.0.0.40.50.85.85.0.0_t00_pb_pc_pd_pe_ga0_gb0_gc30.0_ge0000000000_gh_gf_gg_gd10000000_ha86.86_hb49.1.50.75_hc3.59.39.3.59.39_hd38.1.49.49_ia_if_ib_id_ic3.55.BF282D.BF282D.0_jc_ie_ja_jb_jd_je_jf_jg_ka12.55.BF282D.55.0_kb12.55.BF282D.55_kc_kd_ke_kf_la_lb_oa_os_ob_oc_od_oe_of_lc_m00_n00_s00_og_oh_oo_op_oq_or_om_on_ok_ol_oi_oj_ad0.0.0.0.0.0.0.0.0.0
1-nervous=47**aa8.68.1.16.50.8.68.1.16.50_ab_ac_ba50_bb4.1_bc150.500.8.0.1_bd4_be180_ca59.0.30.59.35.30.34.0.0_cb0_da1.0.0.100_db_dd10.3.30.50.50.50_dh2.30.50.50.2_di7_qa_qb_dc1.1.1.1.1_eh1.E5AD7E_ea34.E5AD7E.E5AD7E.27.0.0_ec18.41.E5AD7E.E5AD7E.27.35.65.1_ed39.70.0.1.E5AD7E.27_ef_eg_r00_fa7.50.50.50.40.65.56_fb6_fh_fc0.E5AD7E.55.0.E5AD7E.55.50.61.61.50.50.50_fd16.0.25.E5AD7E.56_fe50.50_ff0000000000_fg1.45_pa0.0.0.0.40.50.85.85.0.0_t00_pb_pc_pd_pe_ga0_gb0_gc25.0_ge0000000000_gh_gf_gg_gd10000000_ha88.88_hb49.1.10.70_hc3.59.39.3.59.39_hd9.1.49.49_ia_if_ib_id_ic3.55.BF282D.BF282D.0_jc_ie_ja_jb_jd_je_jf_jg_ka12.55.BF282D.55.0_kb12.55.BF282D.55_kc_kd_ke_kf_la_lb_oa_os_ob_oc_od_oe_of_lc_m00_n00_s00_og_oh_oo_op_oq_or_om_on_ok_ol_oi_oj_ad0.0.0.0.0.0.0.0.0.0
1-sad=47**aa10.67.1.16.50.9.94.1.16.50_ab_ac_ba50_bb5.1_bc150.500.8.0.1_bd5_be180_ca59.0.30.59.35.30.34.0.0_cb0_da1.0.0.100_db_dd10.3.30.50.50.50_dh2.30.50.50.2_di7_qa_qb_dc1.1.1.1.1_eh1.E5AD7E_ea34.E5AD7E.E5AD7E.27.0.0_ec18.41.E5AD7E.E5AD7E.27.35.65.1_ed39.70.0.1.E5AD7E.27_ef_eg_r00_fa7.50.50.50.40.65.56_fb6_fh_fc0.E5AD7E.55.0.E5AD7E.55.50.61.61.50.50.50_fd16.0.25.E5AD7E.56_fe50.50_ff0000000000_fg1.45_pa0.0.0.0.40.50.85.85.0.0_t00_pb_pc_pd_pe_ga0_gb0_gc20.0_ge0000000000_gh_gf_gg_gd10000000_ha78.78_hb50.1.50.70_hc3.59.39.3.59.39_hd5.1.49.49_ia_if_ib_id_ic3.55.BF282D.BF282D.0_jc_ie_ja_jb_jd_je_jf_jg_ka12.55.BF282D.55.0_kb12.55.BF282D.55_kc_kd_ke_kf_la_lb_oa_os_ob_oc_od_oe_of_lc_m00_n00_s00_og_oh_oo_op_oq_or_om_on_ok_ol_oi_oj_ad0.0.0.0.0.0.0.0.0.0
1-shocked=47**aa65.39.1.26.32.66.39.1.26.39_ab_ac_ba50_bb4.1_bc150.500.8.0.1_bd4_be180_ca59.0.30.59.35.30.34.0.0_cb0_da1.0.0.100_db_dd10.3.30.50.50.50_dh2.30.50.50.2_di7_qa_qb_dc1.1.1.1.1_eh1.E5AD7E_ea34.E5AD7E.E5AD7E.27.0.0_ec18.41.E5AD7E.E5AD7E.27.35.65.1_ed39.70.0.1.E5AD7E.27_ef_eg_r00_fa7.50.50.50.40.65.56_fb6_fh_fc0.E5AD7E.55.0.E5AD7E.55.50.61.61.50.50.50_fd16.0.25.E5AD7E.56_fe50.50_ff0000000000_fg1.45_pa0.0.0.0.40.50.85.85.0.0_t00_pb_pc_pd_pe_ga0_gb0_gc30.0_ge0000000000_gh_gf_gg_gd10000000_ha96.96_hb49.1.40.54_hc0.59.39.0.59.39_hd40.1.60.60_ia_if_ib_id_ic3.55.BF282D.BF282D.0_jc_ie_ja_jb_jd_je_jf_jg_ka12.55.BF282D.55.0_kb12.55.BF282D.55_kc_kd_ke_kf_la_lb_oa_os_ob_oc_od_oe_of_lc_m00_n00_s00_og_oh_oo_op_oq_or_om_on_ok_ol_oi_oj_ad0.0.0.0.0.0.0.0.0.0
1-stunned=47**aa6.76.1.16.34.6.75.1.16.34_ab_ac_ba50_bb5.1_bc150.500.8.0.1_bd5_be180_ca59.0.30.59.35.30.34.0.0_cb0_da1.0.0.100_db_dd10.3.30.50.50.50_dh2.30.50.50.2_di7_qa_qb_dc1.1.1.1.1_eh1.E5AD7E_ea34.E5AD7E.E5AD7E.27.0.0_ec18.41.E5AD7E.E5AD7E.27.35.65.1_ed39.70.0.1.E5AD7E.27_ef_eg_r00_fa7.50.50.50.40.65.56_fb6_fh_fc0.E5AD7E.55.0.E5AD7E.55.50.61.61.50.50.50_fd16.0.25.E5AD7E.56_fe50.50_ff0000000000_fg1.45_pa0.0.0.0.40.50.85.85.0.0_t00_pb_pc_pd_pe_ga0_gb0_gc25.0_ge0000000000_gh_gf_gg_gd10000000_ha97.97_hb49.1.35.75_hc0.59.39.0.59.39_hd38.1.49.49_ia_if_ib_id_ic3.55.BF282D.BF282D.0_jc_ie_ja_jb_jd_je_jf_jg_ka12.55.BF282D.55.0_kb12.55.BF282D.55_kc_kd_ke_kf_la_lb_oa_os_ob_oc_od_oe_of_lc_m00_n00_s00_og_oh_oo_op_oq_or_om_on_ok_ol_oi_oj_ad0.0.0.0.0.0.0.0.0.0
1-strip=47**aa33.75.0.47.95.33.75.0.47.95_ab_ac_ba50_bb4.1_bc150.500.8.0.1_bd4_be180_ca59.0.30.59.35.30.34.0.0_cb0_da1.0.0.100_db_dd10.3.30.50.50.50_dh2.30.50.50.2_di7_qa_qb_dc1.1.1.1.1_eh1.E5AD7E_ea34.E5AD7E.E5AD7E.27.0.0_ec18.41.E5AD7E.E5AD7E.27.35.65.1_ed39.70.0.1.E5AD7E.27_ef_eg_r00_fa7.50.50.50.40.65.56_fb6_fh_fc0.E5AD7E.55.0.E5AD7E.55.50.61.61.50.50.50_fd16.0.25.E5AD7E.56_fe50.50_ff0000000000_fg1.45_pa0.0.0.0.40.50.85.85.0.0_t00_pb_pc_pd_pe_ga0_gb0_gc35.0_ge0000000000_gh_gf_gg_gd10000000_ha78.78_hb49.1.0.75_hc3.59.39.3.59.39_hd38.1.49.49_ia_if_ib_id_ic3.55.BF282D.BF282D.0_jc_ie_ja_jb_jd_je_jf_jg_ka12.55.BF282D.55.0_kb12.55.BF282D.55_kc_kd_ke_kf_la_lb_oa_os_ob_oc_od_oe_of_lc_m00_n00_s00_og_oh_oo_op_oq_or_om_on_ok_ol_oi_oj_ad0.0.0.0.0.0.0.0.0.0
1-victory=47**aa12.64.1.26.51.18.44.1.16.51_ab_ac_ba50_bb6.1_bc150.500.8.0.1_bd6_be180_ca59.0.30.59.35.30.34.0.0_cb0_da1.0.0.100_db_dd10.3.30.50.50.50_dh2.30.50.50.2_di7_qa_qb_dc1.1.1.1.1_eh1.E5AD7E_ea34.E5AD7E.E5AD7E.27.0.0_ec18.41.E5AD7E.E5AD7E.27.35.65.1_ed39.70.0.1.E5AD7E.27_ef_eg_r00_fa7.50.50.50.40.65.56_fb6_fh_fc0.E5AD7E.55.0.E5AD7E.55.50.61.61.50.50.50_fd16.0.25.E5AD7E.56_fe50.50_ff0000000000_fg1.45_pa0.0.0.0.40.50.85.85.0.0_t00_pb_pc_pd_pe_ga0_gb0_gc25.0_ge0000000000_gh_gf_gg_gd10000000_ha100.100_hb49.1.44.95_hc0.59.39.0.59.39_hd34.1.65.65_ia_if_ib_id_ic3.55.BF282D.BF282D.0_jc_ie_ja_jb_jd_je_jf_jg_ka12.55.BF282D.55.0_kb12.55.BF282D.55_kc_kd_ke_kf_la_lb_oa_os_ob_oc_od_oe_of_lc_m00_n00_s00_og_oh_oo_op_oq_or_om_on_ok_ol_oi_oj_ad0.0.0.0.0.0.0.0.0.0

2-angry=47**aa8.66.1.16.46.7.91.1.16.40_ab_ac_ba50_bb6.1_bc150.500.8.0.1_bd6_be180_ca59.0.30.59.35.30.34.0.0_cb0_da1.0.0.100_db_dd12.3.30.50.50.50_dh2.30.50.50.2_di7_qa_qb_dc1.1.1.1.1_eh1.E5AD7E_ea34.E5AD7E.E5AD7E.27.0.0_ec18.41.E5AD7E.E5AD7E.27.35.65.1_ed39.70.0.1.E5AD7E.27_ef_eg_r00_fa7.50.50.50.40.65.56_fb6_fh_fc0.E5AD7E.55.0.E5AD7E.55.50.61.61.50.50.50_fd16.0.25.E5AD7E.56_fe50.50_ff0000000000_fg1.45_pa0.0.0.0.40.50.85.85.0.0_t00_pb_pc_pd_pe_ga0_gb0_gc35.0_ge0000000000_gh_gf_gg_gd10000000_ha92.92_hb49.1.44.90_hc1.59.39.1.59.39_hd4.1.49.49_ia_if_ib_id_ic_jc_ie_ja_jb_jd_je_jf_jg_ka12.55.BF282D.55.0_kb12.55.BF282D.55_kc_kd_ke_kf_la_lb_oa_os_ob_oc_od_oe_of_lc_m00_n00_s00_og_oh_oo_op_oq_or_om_on_ok_ol_oi_oj_ad0.0.0.0.0.0.0.0.0.0
2-awkward=47**aa6.70.1.16.50.6.91.1.16.50_ab_ac_ba50_bb4.1_bc150.500.8.0.1_bd4_be180_ca59.0.30.59.35.30.34.0.0_cb0_da1.0.0.100_db_dd12.3.30.50.50.50_dh2.30.50.50.2_di7_qa_qb_dc1.1.1.1.1_eh1.E5AD7E_ea34.E5AD7E.E5AD7E.27.0.0_ec18.41.E5AD7E.E5AD7E.27.35.65.1_ed39.70.0.1.E5AD7E.27_ef_eg_r00_fa7.50.50.50.40.65.56_fb6_fh_fc0.E5AD7E.55.0.E5AD7E.55.50.61.61.50.50.50_fd16.0.25.E5AD7E.56_fe50.50_ff0000000000_fg1.45_pa0.0.0.0.40.50.85.85.0.0_t00_pb_pc_pd_pe_ga0_gb0_gc45.0_ge0000000000_gh_gf_gg_gd10000000_ha87.87_hb97.1.70.60_hc0.59.39.0.59.39_hd9.1.49.49_ia_if_ib_id_ic_jc_ie_ja_jb_jd_je_jf_jg_ka12.55.BF282D.55.0_kb12.55.BF282D.55_kc_kd_ke_kf_la_lb_oa_os_ob_oc_od_oe_of_lc_m00_n00_s00_og_oh_oo_op_oq_or_om_on_ok_ol_oi_oj_ad0.0.0.0.0.0.0.0.0.0
2-calm=47**aa6.70.1.16.50.6.93.1.16.50_ab_ac_ba50_bb5.1_bc150.500.8.0.1_bd5_be180_ca59.0.30.59.35.30.34.0.0_cb0_da1.0.0.100_db_dd12.3.30.50.50.50_dh2.30.50.50.2_di7_qa_qb_dc1.1.1.1.1_eh1.E5AD7E_ea34.E5AD7E.E5AD7E.27.0.0_ec18.41.E5AD7E.E5AD7E.27.35.65.1_ed39.70.0.1.E5AD7E.27_ef_eg_r00_fa7.50.50.50.40.65.56_fb6_fh_fc0.E5AD7E.55.0.E5AD7E.55.50.61.61.50.50.50_fd16.0.25.E5AD7E.56_fe50.50_ff0000000000_fg1.45_pa0.0.0.0.40.50.85.85.0.0_t00_pb_pc_pd_pe_ga0_gb0_gc35.0_ge0000000000_gh_gf_gg_gd10000000_ha88.88_hb49.1.44.90_hc0.59.39.0.59.39_hd0.1.49.49_ia_if_ib_id_ic_jc_ie_ja_jb_jd_je_jf_jg_ka12.55.BF282D.55.0_kb12.55.BF282D.55_kc_kd_ke_kf_la_lb_oa_os_ob_oc_od_oe_of_lc_m00_n00_s00_og_oh_oo_op_oq_or_om_on_ok_ol_oi_oj_ad0.0.0.0.0.0.0.0.0.0
2-embarrassed=47**aa6.67.1.16.50.7.91.1.16.39_ab_ac_ba50_bb4.1_bc150.500.8.0.1_bd4_be180_ca59.0.30.59.35.30.34.0.0_cb0_da1.0.0.100_db_dd12.3.30.50.50.50_dh2.30.50.50.2_di7_qa_qb_dc1.1.1.1.1_eh1.E5AD7E_ea34.E5AD7E.E5AD7E.27.0.0_ec18.41.E5AD7E.E5AD7E.27.35.65.1_ed39.70.0.1.E5AD7E.27_ef_eg_r00_fa7.50.50.50.40.65.56_fb6_fh_fc0.E5AD7E.55.0.E5AD7E.55.50.61.61.50.50.50_fd16.0.25.E5AD7E.56_fe50.50_ff0000000000_fg1.45_pa0.0.0.0.40.50.85.85.0.0_t00_pb_pc_pd_pe_ga0_gb0_gc45.0_ge0000000000_gh_gf_gg_gd10000000_ha80.80_hb49.1.23.75_hc0.59.39.0.59.39_hd10.1.49.49_ia_if_ib_id_ic_jc_ie_ja_jb_jd_je_jf_jg_ka12.55.BF282D.55.0_kb12.55.BF282D.55_kc_kd_ke_kf_la_lb_oa_os_ob_oc_od_oe_of_lc_m00_n00_s00_og_oh_oo_op_oq_or_om_on_ok_ol_oi_oj_ad0.0.0.0.0.0.0.0.0.0
2-happy=47**aa6.90.1.42.51.14.45.1.42.51_ab_ac_ba50_bb6.1_bc150.500.8.0.1_bd6_be180_ca59.0.30.59.35.30.34.0.0_cb0_da1.0.0.100_db_dd12.3.30.50.50.50_dh2.30.50.50.2_di7_qa_qb_dc1.1.1.1.1_eh1.E5AD7E_ea34.E5AD7E.E5AD7E.27.0.0_ec18.41.E5AD7E.E5AD7E.27.35.65.1_ed39.70.0.1.E5AD7E.27_ef_eg_r00_fa7.50.50.50.40.65.56_fb6_fh_fc0.E5AD7E.55.0.E5AD7E.55.50.61.61.50.50.50_fd16.0.25.E5AD7E.56_fe50.50_ff0000000000_fg1.45_pa0.0.0.0.40.50.85.85.0.0_t00_pb_pc_pd_pe_ga0_gb0_gc35.0_ge0000000000_gh_gf_gg_gd10000000_ha95.95_hb49.1.44.95_hc1.59.39.1.59.39_hd25.1.49.49_ia_if_ib_id_ic_jc_ie_ja_jb_jd_je_jf_jg_ka12.55.BF282D.55.0_kb12.55.BF282D.55_kc_kd_ke_kf_la_lb_oa_os_ob_oc_od_oe_of_lc_m00_n00_s00_og_oh_oo_op_oq_or_om_on_ok_ol_oi_oj_ad0.0.0.0.0.0.0.0.0.0
2-horny=47**aa7.72.1.16.50.7.92.1.16.50_ab_ac_ba50_bb5.1_bc150.500.8.0.1_bd5_be180_ca59.0.30.59.35.30.34.0.0_cb0_da1.0.0.100_db_dd12.3.30.50.50.50_dh2.30.50.50.2_di7_qa_qb_dc1.1.1.1.1_eh1.E5AD7E_ea34.E5AD7E.E5AD7E.27.0.0_ec18.41.E5AD7E.E5AD7E.27.35.65.1_ed39.70.0.1.E5AD7E.27_ef_eg_r00_fa7.50.50.50.40.65.56_fb6_fh_fc0.E5AD7E.55.0.E5AD7E.55.50.61.61.50.50.50_fd16.0.25.E5AD7E.56_fe50.50_ff0000000000_fg1.45_pa0.0.0.0.40.50.85.85.0.0_t00_pb_pc_pd_pe_ga0_gb0_gc45.0_ge0000000000_gh_gf_gg_gd10000000_ha75.75_hb50.1.40.60_hc0.59.39.0.59.39_hd17.1.49.49_ia_if_ib_id_ic_jc_ie_ja_jb_jd_je_jf_jg_ka12.55.BF282D.55.0_kb12.55.BF282D.55_kc_kd_ke_kf_la_lb_oa_os_ob_oc_od_oe_of_lc_m00_n00_s00_og_oh_oo_op_oq_or_om_on_ok_ol_oi_oj_ad0.0.0.0.0.0.0.0.0.0
2-interested=47**aa7.70.1.16.50.7.91.1.16.50_ab_ac_ba50_bb5.1_bc150.500.8.0.1_bd5_be180_ca59.0.30.59.35.30.34.0.0_cb0_da1.0.0.100_db_dd12.3.30.50.50.50_dh2.30.50.50.2_di7_qa_qb_dc1.1.1.1.1_eh1.E5AD7E_ea34.E5AD7E.E5AD7E.27.0.0_ec18.41.E5AD7E.E5AD7E.27.35.65.1_ed39.70.0.1.E5AD7E.27_ef_eg_r00_fa7.50.50.50.40.65.56_fb6_fh_fc0.E5AD7E.55.0.E5AD7E.55.50.61.61.50.50.50_fd16.0.25.E5AD7E.56_fe50.50_ff0000000000_fg1.45_pa0.0.0.0.40.50.85.85.0.0_t00_pb_pc_pd_pe_ga0_gb0_gc35.0_ge0000000000_gh_gf_gg_gd10000000_ha82.82_hb49.1.44.85_hc0.59.39.0.59.39_hd3.1.49.49_ia_if_ib_id_ic_jc_ie_ja_jb_jd_je_jf_jg_ka12.55.BF282D.55.0_kb12.55.BF282D.55_kc_kd_ke_kf_la_lb_oa_os_ob_oc_od_oe_of_lc_m00_n00_s00_og_oh_oo_op_oq_or_om_on_ok_ol_oi_oj_ad0.0.0.0.0.0.0.0.0.0
2-lost=47**aa7.68.1.16.50.7.68.1.16.50_ab_ac_ba50_bb4.1_bc150.500.8.0.1_bd4_be180_ca59.0.30.59.35.30.34.0.0_cb0_da1.0.0.100_db_dd12.3.30.50.50.50_dh2.30.50.50.2_di7_qa_qb_dc1.1.1.1.1_eh1.E5AD7E_ea34.E5AD7E.E5AD7E.27.0.0_ec18.41.E5AD7E.E5AD7E.27.35.65.1_ed39.70.0.1.E5AD7E.27_ef_eg_r00_fa7.50.50.50.40.65.56_fb6_fh_fc0.E5AD7E.55.0.E5AD7E.55.50.61.61.50.50.50_fd16.0.25.E5AD7E.56_fe50.50_ff0000000000_fg1.45_pa0.0.0.0.40.50.85.85.0.0_t00_pb_pc_pd_pe_ga0_gb0_gc45.0_ge0000000000_gh_gf_gg_gd10000000_ha98.98_hb49.1.45.60_hc3.59.39.3.59.39_hd40.1.49.49_ia_if_ib_id_ic_jc_ie_ja_jb_jd_je_jf_jg_ka12.55.BF282D.55.0_kb12.55.BF282D.55_kc_kd_ke_kf_la_lb_oa_os_ob_oc_od_oe_of_lc_m00_n00_s00_og_oh_oo_op_oq_or_om_on_ok_ol_oi_oj_ad0.0.0.0.0.0.0.0.0.0
2-nervous=47**aa8.66.1.16.50.6.91.1.16.50_ab_ac_ba50_bb4.1_bc150.500.8.0.1_bd4_be180_ca59.0.30.59.35.30.34.0.0_cb0_da1.0.0.100_db_dd12.3.30.50.50.50_dh2.30.50.50.2_di7_qa_qb_dc1.1.1.1.1_eh1.E5AD7E_ea34.E5AD7E.E5AD7E.27.0.0_ec18.41.E5AD7E.E5AD7E.27.35.65.1_ed39.70.0.1.E5AD7E.27_ef_eg_r00_fa7.50.50.50.40.65.56_fb6_fh_fc0.E5AD7E.55.0.E5AD7E.55.50.61.61.50.50.50_fd16.0.25.E5AD7E.56_fe50.50_ff0000000000_fg1.45_pa0.0.0.0.40.50.85.85.0.0_t00_pb_pc_pd_pe_ga0_gb0_gc45.0_ge0000000000_gh_gf_gg_gd10000000_ha88.88_hb49.1.10.70_hc3.59.39.3.59.39_hd9.1.49.49_ia_if_ib_id_ic_jc_ie_ja_jb_jd_je_jf_jg_ka12.55.BF282D.55.0_kb12.55.BF282D.55_kc_kd_ke_kf_la_lb_oa_os_ob_oc_od_oe_of_lc_m00_n00_s00_og_oh_oo_op_oq_or_om_on_ok_ol_oi_oj_ad0.0.0.0.0.0.0.0.0.0
2-sad=47**aa10.67.1.16.50.9.90.1.16.50_ab_ac_ba50_bb5.1_bc150.500.8.0.1_bd5_be180_ca59.0.30.59.35.30.34.0.0_cb0_da1.0.0.100_db_dd12.3.30.50.50.50_dh2.30.50.50.2_di7_qa_qb_dc1.1.1.1.1_eh1.E5AD7E_ea34.E5AD7E.E5AD7E.27.0.0_ec18.41.E5AD7E.E5AD7E.27.35.65.1_ed39.70.0.1.E5AD7E.27_ef_eg_r00_fa7.50.50.50.40.65.56_fb6_fh_fc0.E5AD7E.55.0.E5AD7E.55.50.61.61.50.50.50_fd16.0.25.E5AD7E.56_fe50.50_ff0000000000_fg1.45_pa0.0.0.0.40.50.85.85.0.0_t00_pb_pc_pd_pe_ga0_gb0_gc35.0_ge0000000000_gh_gf_gg_gd10000000_ha78.78_hb50.1.50.70_hc3.59.39.3.59.39_hd5.1.49.49_ia_if_ib_id_ic_jc_ie_ja_jb_jd_je_jf_jg_ka12.55.BF282D.55.0_kb12.55.BF282D.55_kc_kd_ke_kf_la_lb_oa_os_ob_oc_od_oe_of_lc_m00_n00_s00_og_oh_oo_op_oq_or_om_on_ok_ol_oi_oj_ad0.0.0.0.0.0.0.0.0.0
2-shocked=47**aa65.39.1.26.32.66.39.1.26.39_ab_ac_ba50_bb4.1_bc150.500.8.0.1_bd4_be180_ca59.0.30.59.35.30.34.0.0_cb0_da1.0.0.100_db_dd12.3.30.50.50.50_dh2.30.50.50.2_di7_qa_qb_dc1.1.1.1.1_eh1.E5AD7E_ea34.E5AD7E.E5AD7E.27.0.0_ec18.41.E5AD7E.E5AD7E.27.35.65.1_ed39.70.0.1.E5AD7E.27_ef_eg_r00_fa7.50.50.50.40.65.56_fb6_fh_fc0.E5AD7E.55.0.E5AD7E.55.50.61.61.50.50.50_fd16.0.25.E5AD7E.56_fe50.50_ff0000000000_fg1.45_pa0.0.0.0.40.50.85.85.0.0_t00_pb_pc_pd_pe_ga0_gb0_gc45.0_ge0000000000_gh_gf_gg_gd10000000_ha96.96_hb49.1.40.54_hc0.59.39.0.59.39_hd40.1.60.60_ia_if_ib_id_ic_jc_ie_ja_jb_jd_je_jf_jg_ka12.55.BF282D.55.0_kb12.55.BF282D.55_kc_kd_ke_kf_la_lb_oa_os_ob_oc_od_oe_of_lc_m00_n00_s00_og_oh_oo_op_oq_or_om_on_ok_ol_oi_oj_ad0.0.0.0.0.0.0.0.0.0
2-stunned=47**aa6.73.1.16.34.6.95.1.16.34_ab_ac_ba50_bb5.1_bc150.500.8.0.1_bd5_be180_ca59.0.30.59.35.30.34.0.0_cb0_da1.0.0.100_db_dd12.3.30.50.50.50_dh2.30.50.50.2_di7_qa_qb_dc1.1.1.1.1_eh1.E5AD7E_ea34.E5AD7E.E5AD7E.27.0.0_ec18.41.E5AD7E.E5AD7E.27.35.65.1_ed39.70.0.1.E5AD7E.27_ef_eg_r00_fa7.50.50.50.40.65.56_fb6_fh_fc0.E5AD7E.55.0.E5AD7E.55.50.61.61.50.50.50_fd16.0.25.E5AD7E.56_fe50.50_ff0000000000_fg1.45_pa0.0.0.0.40.50.85.85.0.0_t00_pb_pc_pd_pe_ga0_gb0_gc40.0_ge0000000000_gh_gf_gg_gd10000000_ha97.97_hb49.1.35.75_hc0.59.39.0.59.39_hd38.1.49.49_ia_if_ib_id_ic_jc_ie_ja_jb_jd_je_jf_jg_ka12.55.BF282D.55.0_kb12.55.BF282D.55_kc_kd_ke_kf_la_lb_oa_os_ob_oc_od_oe_of_lc_m00_n00_s00_og_oh_oo_op_oq_or_om_on_ok_ol_oi_oj_ad0.0.0.0.0.0.0.0.0.0
2-strip=47**aa33.62.0.47.95.33.62.0.47.95_ab_ac_ba50_bb4.1_bc150.500.8.0.1_bd4_be180_ca59.0.30.59.35.30.34.0.0_cb0_da1.0.0.100_db_dd12.3.30.50.50.50_dh2.30.50.50.2_di7_qa_qb_dc1.1.1.1.1_eh1.E5AD7E_ea34.E5AD7E.E5AD7E.27.0.0_ec18.41.E5AD7E.E5AD7E.27.35.65.1_ed39.70.0.1.E5AD7E.27_ef_eg_r00_fa7.50.50.50.40.65.56_fb6_fh_fc0.E5AD7E.55.0.E5AD7E.55.50.61.61.50.50.50_fd16.0.25.E5AD7E.56_fe50.50_ff0000000000_fg1.45_pa0.0.0.0.40.50.85.85.0.0_t00_pb_pc_pd_pe_ga0_gb0_gc50.0_ge0000000000_gh_gf_gg_gd10000000_ha55.55_hb49.1.0.75_hc3.59.39.3.59.39_hd38.1.49.49_ia_if_ib_id_ic_jc_ie_ja_jb_jd_je_jf_jg_ka12.55.BF282D.55.0_kb12.55.BF282D.55_kc_kd_ke_kf_la_lb_oa_os_ob_oc_od_oe_of_lc_m00_n00_s00_og_oh_oo_op_oq_or_om_on_ok_ol_oi_oj_ad0.0.0.0.0.0.0.0.0.0
2-victory=47**aa12.64.1.26.51.18.44.1.16.51_ab_ac_ba50_bb6.1_bc150.500.8.0.1_bd6_be180_ca59.0.30.59.35.30.34.0.0_cb0_da1.0.0.100_db_dd10.3.30.50.50.50_dh2.30.50.50.2_di7_qa_qb_dc1.1.1.1.1_eh1.E5AD7E_ea34.E5AD7E.E5AD7E.27.0.0_ec18.41.E5AD7E.E5AD7E.27.35.65.1_ed39.70.0.1.E5AD7E.27_ef_eg_r00_fa7.50.50.50.40.65.56_fb6_fh_fc0.E5AD7E.55.0.E5AD7E.55.50.61.61.50.50.50_fd16.0.25.E5AD7E.56_fe50.50_ff0000000000_fg1.45_pa0.0.0.0.40.50.85.85.0.0_t00_pb_pc_pd_pe_ga0_gb0_gc35.0_ge0000000000_gh_gf_gg_gd10000000_ha100.100_hb49.1.44.95_hc0.59.39.0.59.39_hd34.1.65.65_ia_if_ib_id_ic_jc_ie_ja_jb_jd_je_jf_jg_ka12.55.BF282D.55.0_kb12.55.BF282D.55_kc_kd_ke_kf_la_lb_oa_os_ob_oc_od_oe_of_lc_m00_n00_s00_og_oh_oo_op_oq_or_om_on_ok_ol_oi_oj_ad0.0.0.0.0.0.0.0.0.0

3-angry=47**aa6.67.1.16.46.6.67.1.16.40_ab_ac_ba50_bb6.1_bc150.500.8.0.1_bd6_be180_ca59.0.30.59.35.30.34.0.0_cb0_da1.0.0.100_db_dd12.3.30.50.50.50_dh2.30.50.50.2_di7_qa_qb_dc1.1.1.1.1_eh1.E5AD7E_ea34.E5AD7E.E5AD7E.27.0.0_ec18.41.E5AD7E.E5AD7E.27.35.65.1_ed39.70.0.1.E5AD7E.27_ef_eg_r00_fa7.50.50.50.40.65.56_fb6_fh_fc0.E5AD7E.55.0.E5AD7E.55.50.61.61.50.50.50_fd16.0.25.E5AD7E.56_fe50.50_ff0000000000_fg1.45_pa0.0.0.0.40.50.85.85.0.0_t00_pb_pc_pd_pe_ga0_gb0_gc45.0_ge0000000000_gh_gf_gg_gd10000000_ha92.92_hb49.1.44.90_hc1.59.39.1.59.39_hd4.1.49.49_ia_if_ib_id_ic_jc_ie_ja_jb_jd_je_jf_jg_ka_kb12.55.BF282D.55_kc_kd_ke_kf_la_lb_oa_os_ob_oc_od_oe_of_lc_m00_n00_s00_og_oh_oo_op_oq_or_om_on_ok_ol_oi_oj_ad0.0.0.0.0.0.0.0.0.0
3-awkward=47**aa6.69.1.16.50.6.69.1.16.50_ab_ac_ba50_bb4.1_bc150.500.8.0.1_bd4_be180_ca59.0.30.59.35.30.34.0.0_cb0_da1.0.0.100_db_dd13.3.30.50.50.50_dh2.30.50.50.2_di7_qa_qb_dc1.1.1.1.1_eh1.E5AD7E_ea34.E5AD7E.E5AD7E.27.0.0_ec18.41.E5AD7E.E5AD7E.27.35.65.1_ed39.70.0.1.E5AD7E.27_ef_eg_r00_fa7.50.50.50.40.65.56_fb6_fh_fc0.E5AD7E.55.0.E5AD7E.55.50.61.61.50.50.50_fd16.0.25.E5AD7E.56_fe50.50_ff0000000000_fg1.45_pa0.0.0.0.40.50.85.85.0.0_t00_pb_pc_pd_pe_ga0_gb0_gc55.0_ge0000000000_gh_gf_gg_gd10000000_ha87.87_hb97.1.70.60_hc0.59.39.0.59.39_hd9.1.49.49_ia_if_ib_id_ic_jc_ie_ja_jb_jd_je_jf_jg_ka_kb12.55.BF282D.55_kc_kd_ke_kf_la_lb_oa_os_ob_oc_od_oe_of_lc_m00_n00_s00_og_oh_oo_op_oq_or_om_on_ok_ol_oi_oj_ad0.0.0.0.0.0.0.0.0.0
3-calm=47**aa6.70.1.16.50.6.70.1.16.50_ab_ac_ba50_bb5.1_bc150.500.8.0.1_bd5_be180_ca59.0.30.59.35.30.34.0.0_cb0_da1.0.0.100_db_dd12.3.30.50.50.50_dh2.30.50.50.2_di7_qa_qb_dc1.1.1.1.1_eh1.E5AD7E_ea34.E5AD7E.E5AD7E.27.0.0_ec18.41.E5AD7E.E5AD7E.27.35.65.1_ed39.70.0.1.E5AD7E.27_ef_eg_r00_fa7.50.50.50.40.65.56_fb6_fh_fc0.E5AD7E.55.0.E5AD7E.55.50.61.61.50.50.50_fd16.0.25.E5AD7E.56_fe50.50_ff0000000000_fg1.45_pa0.0.0.0.40.50.85.85.0.0_t00_pb_pc_pd_pe_ga0_gb0_gc45.0_ge0000000000_gh_gf_gg_gd10000000_ha88.88_hb49.1.44.90_hc0.59.39.0.59.39_hd4.1.49.49_ia_if_ib_id_ic_jc_ie_ja_jb_jd_je_jf_jg_ka_kb12.55.BF282D.55_kc_kd_ke_kf_la_lb_oa_os_ob_oc_od_oe_of_lc_m00_n00_s00_og_oh_oo_op_oq_or_om_on_ok_ol_oi_oj_ad0.0.0.0.0.0.0.0.0.0
3-embarrassed=47**aa6.69.1.16.25.7.69.1.16.25_ab_ac_ba50_bb4.1_bc150.500.8.0.1_bd4_be180_ca59.0.30.59.35.30.34.0.0_cb0_da1.0.0.100_db_dd13.3.30.50.50.50_dh2.30.50.50.2_di7_qa_qb_dc1.1.1.1.1_eh1.E5AD7E_ea34.E5AD7E.E5AD7E.27.0.0_ec18.41.E5AD7E.E5AD7E.27.35.65.1_ed39.70.0.1.E5AD7E.27_ef_eg_r00_fa7.50.50.50.40.65.56_fb6_fh_fc0.E5AD7E.55.0.E5AD7E.55.50.61.61.50.50.50_fd16.0.25.E5AD7E.56_fe50.50_ff0000000000_fg1.45_pa0.0.0.0.40.50.85.85.0.0_t00_pb_pc_pd_pe_ga0_gb0_gc55.0_ge0000000000_gh_gf_gg_gd10000000_ha75.75_hb49.1.23.60_hc0.59.39.0.59.39_hd47.1.49.49_ia_if_ib_id_ic_jc_ie_ja_jb_jd_je_jf_jg_ka_kb12.55.BF282D.55_kc_kd_ke_kf_la_lb_oa_os_ob_oc_od_oe_of_lc_m00_n00_s00_og_oh_oo_op_oq_or_om_on_ok_ol_oi_oj_ad0.0.0.0.0.0.0.0.0.0
3-happy=47**aa8.56.1.42.30.7.55.1.42.30_ab_ac_ba50_bb6.1_bc150.500.8.0.1_bd6_be180_ca59.0.30.59.35.30.34.0.0_cb0_da1.0.0.100_db_dd12.3.30.50.50.50_dh2.30.50.50.2_di7_qa_qb_dc1.1.1.1.1_eh1.E5AD7E_ea34.E5AD7E.E5AD7E.27.0.0_ec18.41.E5AD7E.E5AD7E.27.35.65.1_ed39.70.0.1.E5AD7E.27_ef_eg_r00_fa7.50.50.50.40.65.56_fb6_fh_fc0.E5AD7E.55.0.E5AD7E.55.50.61.61.50.50.50_fd16.0.25.E5AD7E.56_fe50.50_ff0000000000_fg1.45_pa0.0.0.0.40.50.85.85.0.0_t00_pb_pc_pd_pe_ga0_gb0_gc45.0_ge0000000000_gh_gf_gg_gd10000000_ha95.95_hb49.1.44.95_hc1.59.39.1.59.39_hd25.1.49.49_ia_if_ib_id_ic_jc_ie_ja_jb_jd_je_jf_jg_ka_kb12.55.BF282D.55_kc_kd_ke_kf_la_lb_oa_os_ob_oc_od_oe_of_lc_m00_n00_s00_og_oh_oo_op_oq_or_om_on_ok_ol_oi_oj_ad0.0.0.0.0.0.0.0.0.0
3-horny=47**aa7.69.1.16.50.7.69.1.16.50_ab_ac_ba50_bb5.1_bc150.500.8.0.1_bd5_be180_ca59.0.30.59.35.30.34.0.0_cb0_da1.0.0.100_db_dd13.3.30.50.50.50_dh2.30.50.50.2_di7_qa_qb_dc1.1.1.1.1_eh1.E5AD7E_ea34.E5AD7E.E5AD7E.27.0.0_ec18.41.E5AD7E.E5AD7E.27.35.65.1_ed39.70.0.1.E5AD7E.27_ef_eg_r00_fa7.50.50.50.40.65.56_fb6_fh_fc0.E5AD7E.55.0.E5AD7E.55.50.61.61.50.50.50_fd16.0.25.E5AD7E.56_fe50.50_ff0000000000_fg1.45_pa0.0.0.0.40.50.85.85.0.0_t00_pb_pc_pd_pe_ga0_gb0_gc55.0_ge0000000000_gh_gf_gg_gd10000000_ha75.75_hb50.1.40.60_hc0.59.39.0.59.39_hd17.1.49.49_ia_if_ib_id_ic_jc_ie_ja_jb_jd_je_jf_jg_ka_kb12.55.BF282D.55_kc_kd_ke_kf_la_lb_oa_os_ob_oc_od_oe_of_lc_m00_n00_s00_og_oh_oo_op_oq_or_om_on_ok_ol_oi_oj_ad0.0.0.0.0.0.0.0.0.0
3-interested=47**aa7.70.1.16.50.7.69.1.16.50_ab_ac_ba50_bb5.1_bc150.500.8.0.1_bd5_be180_ca59.0.30.59.35.30.34.0.0_cb0_da1.0.0.100_db_dd13.3.30.50.50.50_dh2.30.50.50.2_di7_qa_qb_dc1.1.1.1.1_eh1.E5AD7E_ea34.E5AD7E.E5AD7E.27.0.0_ec18.41.E5AD7E.E5AD7E.27.35.65.1_ed39.70.0.1.E5AD7E.27_ef_eg_r00_fa7.50.50.50.40.65.56_fb6_fh_fc0.E5AD7E.55.0.E5AD7E.55.50.61.61.50.50.50_fd16.0.25.E5AD7E.56_fe50.50_ff0000000000_fg1.45_pa0.0.0.0.40.50.85.85.0.0_t00_pb_pc_pd_pe_ga0_gb0_gc50.0_ge0000000000_gh_gf_gg_gd10000000_ha82.82_hb49.1.44.85_hc0.59.39.0.59.39_hd3.1.49.49_ia_if_ib_id_ic_jc_ie_ja_jb_jd_je_jf_jg_ka_kb12.55.BF282D.55_kc_kd_ke_kf_la_lb_oa_os_ob_oc_od_oe_of_lc_m00_n00_s00_og_oh_oo_op_oq_or_om_on_ok_ol_oi_oj_ad0.0.0.0.0.0.0.0.0.0
3-lost=47**aa7.68.1.16.50.7.68.1.16.50_ab_ac_ba50_bb4.1_bc150.500.8.0.1_bd4_be180_ca59.0.30.59.35.30.34.0.0_cb0_da1.0.0.100_db_dd13.3.30.50.50.50_dh2.30.50.50.2_di7_qa_qb_dc1.1.1.1.1_eh1.E5AD7E_ea34.E5AD7E.E5AD7E.27.0.0_ec18.41.E5AD7E.E5AD7E.27.35.65.1_ed39.70.0.1.E5AD7E.27_ef_eg_r00_fa7.50.50.50.40.65.56_fb6_fh_fc0.E5AD7E.55.0.E5AD7E.55.50.61.61.50.50.50_fd16.0.25.E5AD7E.56_fe50.50_ff0000000000_fg1.45_pa0.0.0.0.40.50.85.85.0.0_t00_pb_pc_pd_pe_ga0_gb0_gc55.0_ge0000000000_gh_gf_gg_gd10000000_ha98.98_hb49.1.45.45_hc3.59.39.3.59.39_hd39.1.49.49_ia_if_ib_id_ic_jc_ie_ja_jb_jd_je_jf_jg_ka_kb12.55.BF282D.55_kc_kd_ke_kf_la_lb_oa_os_ob_oc_od_oe_of_lc_m00_n00_s00_og_oh_oo_op_oq_or_om_on_ok_ol_oi_oj_ad0.0.0.0.0.0.0.0.0.0
3-nervous=47**aa8.66.1.16.50.8.68.1.16.50_ab_ac_ba50_bb4.1_bc150.500.8.0.1_bd4_be180_ca59.0.30.59.35.30.34.0.0_cb0_da1.0.0.100_db_dd13.3.30.50.50.50_dh2.30.50.50.2_di7_qa_qb_dc1.1.1.1.1_eh1.E5AD7E_ea34.E5AD7E.E5AD7E.27.0.0_ec18.41.E5AD7E.E5AD7E.27.35.65.1_ed39.70.0.1.E5AD7E.27_ef_eg_r00_fa7.50.50.50.40.65.56_fb6_fh_fc0.E5AD7E.55.0.E5AD7E.55.50.61.61.50.50.50_fd16.0.25.E5AD7E.56_fe50.50_ff0000000000_fg1.45_pa0.0.0.0.40.50.85.85.0.0_t00_pb_pc_pd_pe_ga0_gb0_gc55.0_ge0000000000_gh_gf_gg_gd10000000_ha81.81_hb49.1.10.60_hc3.59.39.3.59.39_hd10.1.49.49_ia_if_ib_id_ic_jc_ie_ja_jb_jd_je_jf_jg_ka_kb12.55.BF282D.55_kc_kd_ke_kf_la_lb_oa_os_ob_oc_od_oe_of_lc_m00_n00_s00_og_oh_oo_op_oq_or_om_on_ok_ol_oi_oj_ad0.0.0.0.0.0.0.0.0.0
3-sad=47**aa10.67.1.16.50.9.90.1.16.50_ab_ac_ba50_bb5.1_bc150.500.8.0.1_bd5_be180_ca59.0.30.59.35.30.34.0.0_cb0_da1.0.0.100_db_dd12.3.30.50.50.50_dh2.30.50.50.2_di7_qa_qb_dc1.1.1.1.1_eh1.E5AD7E_ea34.E5AD7E.E5AD7E.27.0.0_ec18.41.E5AD7E.E5AD7E.27.35.65.1_ed39.70.0.1.E5AD7E.27_ef_eg_r00_fa7.50.50.50.40.65.56_fb6_fh_fc0.E5AD7E.55.0.E5AD7E.55.50.61.61.50.50.50_fd16.0.25.E5AD7E.56_fe50.50_ff0000000000_fg1.45_pa0.0.0.0.40.50.85.85.0.0_t00_pb_pc_pd_pe_ga0_gb0_gc45.0_ge0000000000_gh_gf_gg_gd10000000_ha78.78_hb50.1.50.70_hc3.59.39.3.59.39_hd5.1.49.49_ia_if_ib_id_ic_jc_ie_ja_jb_jd_je_jf_jg_ka_kb12.55.BF282D.55_kc_kd_ke_kf_la_lb_oa_os_ob_oc_od_oe_of_lc_m00_n00_s00_og_oh_oo_op_oq_or_om_on_ok_ol_oi_oj_ad0.0.0.0.0.0.0.0.0.0
3-shocked=47**aa8.69.1.26.28.8.69.1.26.28_ab_ac_ba50_bb4.1_bc150.500.8.0.1_bd4_be180_ca59.0.30.59.35.30.34.0.0_cb0_da1.0.0.100_db_dd13.3.30.50.50.50_dh2.30.50.50.2_di7_qa_qb_dc1.1.1.1.1_eh1.E5AD7E_ea34.E5AD7E.E5AD7E.27.0.0_ec18.41.E5AD7E.E5AD7E.27.35.65.1_ed39.70.0.1.E5AD7E.27_ef_eg_r00_fa7.50.50.50.40.65.56_fb6_fh_fc0.E5AD7E.55.0.E5AD7E.55.50.61.61.50.50.50_fd16.0.25.E5AD7E.56_fe50.50_ff0000000000_fg1.45_pa0.0.0.0.40.50.85.85.0.0_t00_pb_pc_pd_pe_ga0_gb0_gc55.0_ge0000000000_gh_gf_gg_gd10000000_ha96.96_hb49.1.25.54_hc0.59.39.0.59.39_hd40.1.60.60_ia_if_ib_id_ic_jc_ie_ja_jb_jd_je_jf_jg_ka_kb12.55.BF282D.55_kc_kd_ke_kf_la_lb_oa_os_ob_oc_od_oe_of_lc_m00_n00_s00_og_oh_oo_op_oq_or_om_on_ok_ol_oi_oj_ad0.0.0.0.0.0.0.0.0.0
3-stunned=47**aa9.70.1.16.55.9.70.1.16.55_ab_ac_ba50_bb5.1_bc150.500.8.0.1_bd5_be180_ca59.0.30.59.35.30.34.0.0_cb0_da1.0.0.100_db_dd13.3.30.50.50.50_dh2.30.50.50.2_di7_qa_qb_dc1.1.1.1.1_eh1.E5AD7E_ea34.E5AD7E.E5AD7E.27.0.0_ec18.41.E5AD7E.E5AD7E.27.35.65.1_ed39.70.0.1.E5AD7E.27_ef_eg_r00_fa7.50.50.50.40.65.56_fb6_fh_fc0.E5AD7E.55.0.E5AD7E.55.50.61.61.50.50.50_fd16.0.25.E5AD7E.56_fe50.50_ff0000000000_fg1.45_pa0.0.0.0.40.50.85.85.0.0_t00_pb_pc_pd_pe_ga0_gb0_gc50.0_ge0000000000_gh_gf_gg_gd10000000_ha97.97_hb49.1.35.75_hc0.59.39.0.59.39_hd38.1.49.49_ia_if_ib_id_ic_jc_ie_ja_jb_jd_je_jf_jg_ka_kb12.55.BF282D.55_kc_kd_ke_kf_la_lb_oa_os_ob_oc_od_oe_of_lc_m00_n00_s00_og_oh_oo_op_oq_or_om_on_ok_ol_oi_oj_ad0.0.0.0.0.0.0.0.0.0
3-strip=47**aa24.82.0.47.84.24.82.0.47.84_ab_ac_ba50_bb44.1_bc150.500.8.0.1_bd44_be180_ca59.0.30.59.35.30.34.0.0_cb0_da1.0.0.100_db_dd14.3.30.50.50.50_dh2.30.50.50.2_di7_qa_qb_dc1.1.1.1.1_eh1.E5AD7E_ea34.E5AD7E.E5AD7E.27.0.0_ec18.41.E5AD7E.E5AD7E.27.35.65.1_ed39.70.0.1.E5AD7E.27_ef_eg_r00_fa7.50.50.50.40.65.56_fb6_fh_fc0.E5AD7E.55.0.E5AD7E.55.50.61.61.50.50.50_fd16.0.25.E5AD7E.56_fe50.50_ff0000000000_fg1.45_pa0.0.0.0.40.50.85.85.0.0_t00_pb_pc_pd_pe_ga0_gb0_gc70.0_ge0000000000_gh_gf_gg_gd10000000_ha48.48_hb49.1.0.75_hc3.59.39.3.59.39_hd10.1.49.49_ia_if_ib_id_ic_jc_ie_ja_jb_jd_je_jf_jg_ka_kb12.55.BF282D.55_kc_kd_ke_kf_la_lb_oa_os_ob_oc_od_oe_of_lc_m00_n00_s00_og_oh_oo_op_oq_or_om_on_ok_ol_oi_oj_ad0.0.0.0.0.0.0.0.0.0
3-victory=47**aa6.55.1.16.21.6.55.1.16.21_ab_ac_ba50_bb6.1_bc150.500.8.0.1_bd6_be180_ca59.0.30.59.35.30.34.0.0_cb0_da1.0.0.100_db_dd12.3.30.50.50.50_dh2.30.50.50.2_di7_qa_qb_dc1.1.1.1.1_eh1.E5AD7E_ea34.E5AD7E.E5AD7E.27.0.0_ec18.41.E5AD7E.E5AD7E.27.35.65.1_ed39.70.0.1.E5AD7E.27_ef_eg_r00_fa7.50.50.50.40.65.56_fb6_fh_fc0.E5AD7E.55.0.E5AD7E.55.50.61.61.50.50.50_fd16.0.25.E5AD7E.56_fe50.50_ff0000000000_fg1.45_pa0.0.0.0.40.50.85.85.0.0_t00_pb_pc_pd_pe_ga0_gb0_gc45.0_ge0000000000_gh_gf_gg_gd10000000_ha100.100_hb49.1.44.95_hc0.59.39.0.59.39_hd28.1.65.65_ia_if_ib_id_ic_jc_ie_ja_jb_jd_je_jf_jg_ka_kb12.55.BF282D.55_kc_kd_ke_kf_la_lb_oa_os_ob_oc_od_oe_of_lc_m00_n00_s00_og_oh_oo_op_oq_or_om_on_ok_ol_oi_oj_ad0.0.0.0.0.0.0.0.0.0

4-angry=47**aa6.67.1.16.46.6.92.1.16.40_ab_ac_ba50_bb5.1_bc275.500.8.0.1_bd5_be180_ca59.0.30.59.35.30.34.0.0_cb0_da1.0.0.100_db_dd13.3.30.50.50.50_dh2.30.50.50.2_di7_qa_qb_dc1.1.1.1.1_eh1.E5AD7E_ea34.E5AD7E.E5AD7E.27.0.0_ec18.41.E5AD7E.E5AD7E.27.35.65.1_ed39.70.0.1.E5AD7E.27_ef_eg_r00_fa7.50.50.50.40.65.56_fb6_fh_fc0.E5AD7E.55.0.E5AD7E.55.50.61.61.50.50.50_fd16.0.25.E5AD7E.56_fe50.50_ff0000000000_fg1.45_pa0.0.0.0.40.50.85.85.0.0_t00_pb_pc_pd_pe_ga0_gb0_gc60.0_ge0000000000_gh_gf_gg_gd10000000_ha92.92_hb49.1.44.90_hc1.59.39.1.59.39_hd4.1.49.49_ia_if_ib_id_ic_jc_ie_ja_jb_jd_je_jf_jg_ka_kb_kc_kd_ke_kf_la_lb_oa_os_ob_oc_od_oe_of_lc_m00_n00_s00_og_oh_oo_op_oq_or_om_on_ok_ol_oi_oj_ad0.0.0.0.0.0.0.0.0.0
4-awkward=47**aa6.69.1.16.50.6.92.1.28.39_ab_ac_ba50_bb4.1_bc418.500.8.0.1_bd4_be180_ca59.0.30.59.35.30.34.0.0_cb0_da1.0.0.100_db_dd14.3.30.50.50.50_dh2.30.50.50.2_di7_qa_qb_dc1.1.1.1.1_eh1.E5AD7E_ea34.E5AD7E.E5AD7E.27.0.0_ec18.41.E5AD7E.E5AD7E.27.35.65.1_ed39.70.0.1.E5AD7E.27_ef_eg_r00_fa7.50.50.50.40.65.56_fb6_fh_fc0.E5AD7E.55.0.E5AD7E.55.50.61.61.50.50.50_fd16.0.25.E5AD7E.56_fe50.50_ff0000000000_fg1.45_pa0.0.0.0.40.50.85.85.0.0_t00_pb_pc_pd_pe_ga0_gb0_gc70.0_ge0000000000_gh_gf_gg_gd10000000_ha88.88_hb97.1.70.50_hc0.59.39.0.59.39_hd9.1.49.49_ia_if_ib_id_ic_jc_ie_ja_jb_jd_je_jf_jg_ka_kb_kc_kd_ke_kf_la_lb_oa_os_ob_oc_od_oe_of_lc_m00_n00_s00_og_oh_oo_op_oq_or_om_on_ok_ol_oi_oj_ad0.0.0.0.0.0.0.0.0.0
4-calm=47**aa11.68.1.28.50.6.91.1.28.46_ab_ac_ba50_bb5.1_bc563.500.8.0.1_bd5_be180_ca59.0.30.59.35.30.34.0.0_cb0_da1.0.0.100_db_dd13.3.30.50.50.50_dh2.30.50.50.2_di7_qa_qb_dc1.1.1.1.1_eh1.E5AD7E_ea34.E5AD7E.E5AD7E.27.0.0_ec18.41.E5AD7E.E5AD7E.27.35.65.1_ed39.70.0.1.E5AD7E.27_ef_eg_r00_fa7.50.50.50.40.65.56_fb6_fh_fc0.E5AD7E.55.0.E5AD7E.55.50.61.61.50.50.50_fd16.0.25.E5AD7E.56_fe50.50_ff0000000000_fg1.45_pa0.0.0.0.40.50.85.85.0.0_t00_pb_pc_pd_pe_ga0_gb0_gc60.0_ge0000000000_gh_gf_gg_gd10000000_ha88.88_hb49.1.44.90_hc0.59.39.0.59.39_hd4.1.49.49_ia_if_ib_id_ic_jc_ie_ja_jb_jd_je_jf_jg_ka_kb_kc_kd_ke_kf_la_lb_oa_os_ob_oc_od_oe_of_lc_m00_n00_s00_og_oh_oo_op_oq_or_om_on_ok_ol_oi_oj_ad0.0.0.0.0.0.0.0.0.0
4-embarrassed=47**aa6.69.1.16.25.7.92.1.16.44_ab_ac_ba50_bb4.1_bc708.500.8.0.1_bd4_be180_ca59.0.30.59.35.30.34.0.0_cb0_da1.0.0.100_db_dd14.3.30.50.50.50_dh2.30.50.50.2_di7_qa_qb_dc1.1.1.1.1_eh1.E5AD7E_ea34.E5AD7E.E5AD7E.27.0.0_ec18.41.E5AD7E.E5AD7E.27.35.65.1_ed39.70.0.1.E5AD7E.27_ef_eg_r00_fa7.50.50.50.40.65.56_fb6_fh_fc0.E5AD7E.55.0.E5AD7E.55.50.61.61.50.50.50_fd16.0.25.E5AD7E.56_fe50.50_ff0000000000_fg1.45_pa0.0.0.0.40.50.85.85.0.0_t00_pb_pc_pd_pe_ga0_gb0_gc70.0_ge0000000000_gh_gf_gg_gd10000000_ha75.75_hb49.1.23.60_hc0.59.39.0.59.39_hd9.1.49.49_ia_if_ib_id_ic_jc_ie_ja_jb_jd_je_jf_jg_ka_kb_kc_kd_ke_kf_la_lb_oa_os_ob_oc_od_oe_of_lc_m00_n00_s00_og_oh_oo_op_oq_or_om_on_ok_ol_oi_oj_ad0.0.0.0.0.0.0.0.0.0
4-happy=47**aa6.69.1.42.30.7.92.1.28.41_ab_ac_ba50_bb6.1_bc275.500.8.0.1_bd6_be180_ca59.0.30.59.35.30.34.0.0_cb0_da1.0.0.100_db_dd13.3.30.50.50.50_dh2.30.50.50.2_di7_qa_qb_dc1.1.1.1.1_eh1.E5AD7E_ea34.E5AD7E.E5AD7E.27.0.0_ec18.41.E5AD7E.E5AD7E.27.35.65.1_ed39.70.0.1.E5AD7E.27_ef_eg_r00_fa7.50.50.50.40.65.56_fb6_fh_fc0.E5AD7E.55.0.E5AD7E.55.50.61.61.50.50.50_fd16.0.25.E5AD7E.56_fe50.50_ff0000000000_fg1.45_pa0.0.0.0.40.50.85.85.0.0_t00_pb_pc_pd_pe_ga0_gb0_gc65.0_ge0000000000_gh_gf_gg_gd10000000_ha95.95_hb49.1.44.95_hc1.59.39.1.59.39_hd23.1.49.49_ia_if_ib_id_ic_jc_ie_ja_jb_jd_je_jf_jg_ka_kb_kc_kd_ke_kf_la_lb_oa_os_ob_oc_od_oe_of_lc_m00_n00_s00_og_oh_oo_op_oq_or_om_on_ok_ol_oi_oj_ad0.0.0.0.0.0.0.0.0.0
4-horny=47**aa7.71.1.16.50.7.91.1.16.40_ab_ac_ba50_bb5.1_bc418.500.8.0.1_bd5_be180_ca59.0.30.59.35.30.34.0.0_cb0_da1.0.0.100_db_dd14.3.30.50.50.50_dh2.30.50.50.2_di7_qa_qb_dc1.1.1.1.1_eh1.E5AD7E_ea34.E5AD7E.E5AD7E.27.0.0_ec18.41.E5AD7E.E5AD7E.27.35.65.1_ed39.70.0.1.E5AD7E.27_ef_eg_r00_fa7.50.50.50.40.65.56_fb6_fh_fc0.E5AD7E.55.0.E5AD7E.55.50.61.61.50.50.50_fd16.0.25.E5AD7E.56_fe50.50_ff0000000000_fg1.45_pa0.0.0.0.40.50.85.85.0.0_t00_pb_pc_pd_pe_ga0_gb0_gc75.0_ge0000000000_gh_gf_gg_gd10000000_ha75.75_hb50.1.40.60_hc0.59.39.0.59.39_hd17.1.49.49_ia_if_ib_id_ic_jc_ie_ja_jb_jd_je_jf_jg_ka_kb_kc_kd_ke_kf_la_lb_oa_os_ob_oc_od_oe_of_lc_m00_n00_s00_og_oh_oo_op_oq_or_om_on_ok_ol_oi_oj_ad0.0.0.0.0.0.0.0.0.0
4-interested=47**aa7.70.1.16.50.7.91.1.16.50_ab_ac_ba50_bb5.1_bc563.500.8.0.1_bd5_be180_ca59.0.30.59.35.30.34.0.0_cb0_da1.0.0.100_db_dd14.3.30.50.50.50_dh2.30.50.50.2_di7_qa_qb_dc1.1.1.1.1_eh1.E5AD7E_ea34.E5AD7E.E5AD7E.27.0.0_ec18.41.E5AD7E.E5AD7E.27.35.65.1_ed39.70.0.1.E5AD7E.27_ef_eg_r00_fa7.50.50.50.40.65.56_fb6_fh_fc0.E5AD7E.55.0.E5AD7E.55.50.61.61.50.50.50_fd16.0.25.E5AD7E.56_fe50.50_ff0000000000_fg1.45_pa0.0.0.0.40.50.85.85.0.0_t00_pb_pc_pd_pe_ga0_gb0_gc70.0_ge0000000000_gh_gf_gg_gd10000000_ha82.82_hb49.1.44.85_hc0.59.39.0.59.39_hd16.1.49.49_ia_if_ib_id_ic_jc_ie_ja_jb_jd_je_jf_jg_ka_kb_kc_kd_ke_kf_la_lb_oa_os_ob_oc_od_oe_of_lc_m00_n00_s00_og_oh_oo_op_oq_or_om_on_ok_ol_oi_oj_ad0.0.0.0.0.0.0.0.0.0
4-lost=47**aa7.97.1.16.50.7.97.1.16.50_ab_ac_ba50_bb4.1_bc708.500.8.0.1_bd4_be180_ca59.0.30.59.35.30.34.0.0_cb0_da1.0.0.100_db_dd14.3.30.50.50.50_dh2.30.50.50.2_di7_qa_qb_dc1.1.1.1.1_eh1.E5AD7E_ea34.E5AD7E.E5AD7E.27.0.0_ec18.41.E5AD7E.E5AD7E.27.35.65.1_ed39.70.0.1.E5AD7E.27_ef_eg_r00_fa7.50.50.50.40.65.56_fb6_fh_fc0.E5AD7E.55.0.E5AD7E.55.50.61.61.50.50.50_fd16.0.25.E5AD7E.56_fe50.50_ff0000000000_fg1.45_pa0.0.0.0.40.50.85.85.0.0_t00_pb_pc_pd_pe_ga0_gb0_gc75.0_ge0000000000_gh_gf_gg_gd10000000_ha98.98_hb49.1.45.0_hc3.59.39.3.59.39_hd38.1.49.49_ia_if_ib_id_ic_jc_ie_ja_jb_jd_je_jf_jg_ka_kb_kc_kd_ke_kf_la_lb_oa_os_ob_oc_od_oe_of_lc_m00_n00_s00_og_oh_oo_op_oq_or_om_on_ok_ol_oi_oj_ad0.0.0.0.0.0.0.0.0.0
4-nervous=47**aa8.66.1.28.50.6.91.1.28.41_ab_ac_ba50_bb4.1_bc275.500.8.0.1_bd4_be180_ca59.0.30.59.35.30.34.0.0_cb0_da1.0.0.100_db_dd14.3.30.50.50.50_dh2.30.50.50.2_di7_qa_qb_dc1.1.1.1.1_eh1.E5AD7E_ea34.E5AD7E.E5AD7E.27.0.0_ec18.41.E5AD7E.E5AD7E.27.35.65.1_ed39.70.0.1.E5AD7E.27_ef_eg_r00_fa7.50.50.50.40.65.56_fb6_fh_fc0.E5AD7E.55.0.E5AD7E.55.50.61.61.50.50.50_fd16.0.25.E5AD7E.56_fe50.50_ff0000000000_fg1.45_pa0.0.0.0.40.50.85.85.0.0_t00_pb_pc_pd_pe_ga0_gb0_gc70.0_ge0000000000_gh_gf_gg_gd10000000_ha81.81_hb49.1.10.60_hc3.59.39.3.59.39_hd10.1.49.49_ia_if_ib_id_ic_jc_ie_ja_jb_jd_je_jf_jg_ka_kb_kc_kd_ke_kf_la_lb_oa_os_ob_oc_od_oe_of_lc_m00_n00_s00_og_oh_oo_op_oq_or_om_on_ok_ol_oi_oj_ad0.0.0.0.0.0.0.0.0.0
4-sad=47**aa10.67.1.16.50.7.91.1.28.43_ab_ac_ba50_bb5.1_bc418.500.8.0.1_bd5_be180_ca59.0.30.59.35.30.34.0.0_cb0_da1.0.0.100_db_dd13.3.30.50.50.50_dh2.30.50.50.2_di7_qa_qb_dc1.1.1.1.1_eh1.E5AD7E_ea34.E5AD7E.E5AD7E.27.0.0_ec18.41.E5AD7E.E5AD7E.27.35.65.1_ed39.70.0.1.E5AD7E.27_ef_eg_r00_fa7.50.50.50.40.65.56_fb6_fh_fc0.E5AD7E.55.0.E5AD7E.55.50.61.61.50.50.50_fd16.0.25.E5AD7E.56_fe50.50_ff0000000000_fg1.45_pa0.0.0.0.40.50.85.85.0.0_t00_pb_pc_pd_pe_ga0_gb0_gc60.0_ge0000000000_gh_gf_gg_gd10000000_ha78.78_hb50.1.50.70_hc3.59.39.3.59.39_hd5.1.49.49_ia_if_ib_id_ic_jc_ie_ja_jb_jd_je_jf_jg_ka_kb_kc_kd_ke_kf_la_lb_oa_os_ob_oc_od_oe_of_lc_m00_n00_s00_og_oh_oo_op_oq_or_om_on_ok_ol_oi_oj_ad0.0.0.0.0.0.0.0.0.0
4-shocked=47**aa8.69.1.26.28.8.92.1.26.28_ab_ac_ba50_bb4.1_bc563.500.8.0.1_bd4_be180_ca59.0.30.59.35.30.34.0.0_cb0_da1.0.0.100_db_dd13.3.30.50.50.50_dh2.30.50.50.2_di7_qa_qb_dc1.1.1.1.1_eh1.E5AD7E_ea34.E5AD7E.E5AD7E.27.0.0_ec18.41.E5AD7E.E5AD7E.27.35.65.1_ed39.70.0.1.E5AD7E.27_ef_eg_r00_fa7.50.50.50.40.65.56_fb6_fh_fc0.E5AD7E.55.0.E5AD7E.55.50.61.61.50.50.50_fd16.0.25.E5AD7E.56_fe50.50_ff0000000000_fg1.45_pa0.0.0.0.40.50.85.85.0.0_t00_pb_pc_pd_pe_ga0_gb0_gc55.0_ge0000000000_gh_gf_gg_gd10000000_ha98.98_hb49.1.25.30_hc0.59.39.0.59.39_hd40.1.60.60_ia_if_ib_id_ic_jc_ie_ja_jb_jd_je_jf_jg_ka_kb_kc_kd_ke_kf_la_lb_oa_os_ob_oc_od_oe_of_lc_m00_n00_s00_og_oh_oo_op_oq_or_om_on_ok_ol_oi_oj_ad0.0.0.0.0.0.0.0.0.0
4-stunned=47**aa9.70.1.16.55.7.95.1.28.28_ab_ac_ba50_bb5.1_bc708.500.8.0.1_bd5_be180_ca59.0.30.59.35.30.34.0.0_cb0_da1.0.0.100_db_dd13.3.30.50.50.50_dh2.30.50.50.2_di7_qa_qb_dc1.1.1.1.1_eh1.E5AD7E_ea34.E5AD7E.E5AD7E.27.0.0_ec18.41.E5AD7E.E5AD7E.27.35.65.1_ed39.70.0.1.E5AD7E.27_ef_eg_r00_fa7.50.50.50.40.65.56_fb6_fh_fc0.E5AD7E.55.0.E5AD7E.55.50.61.61.50.50.50_fd16.0.25.E5AD7E.56_fe50.50_ff0000000000_fg1.45_pa0.0.0.0.40.50.85.85.0.0_t00_pb_pc_pd_pe_ga0_gb0_gc50.0_ge0000000000_gh_gf_gg_gd10000000_ha97.97_hb49.1.35.75_hc0.59.39.0.59.39_hd38.1.49.49_ia_if_ib_id_ic_jc_ie_ja_jb_jd_je_jf_jg_ka_kb_kc_kd_ke_kf_la_lb_oa_os_ob_oc_od_oe_of_lc_m00_n00_s00_og_oh_oo_op_oq_or_om_on_ok_ol_oi_oj_ad0.0.0.0.0.0.0.0.0.0
4-starting=47**aa10.76.1.47.43.7.89.1.49.84_ab_ac_ba50_bb44.1_bc401.500.8.0.1_bd44_be180_ca59.0.30.59.35.30.34.0.0_cb0_da1.0.0.100_db_dd15.3.30.50.50.50_dh2.30.50.50.2_di7_qa_qb_dc32.1.1.1.1_eh1.E5AD7E_ea34.E5AD7E.E5AD7E.27.0.0_ec18.41.E5AD7E.E5AD7E.27.35.65.1_ed39.70.0.1.E5AD7E.27_ef_eg_r00_fa7.50.50.50.40.65.56_fb6_fh_fc0.E5AD7E.55.0.E5AD7E.55.50.61.61.50.50.50_fd16.0.25.E5AD7E.56_fe50.50_ff0000000000_fg1.45_pa0.0.0.0.40.50.85.85.0.0_t00_pb_pc_pd_pe_ga0_gb0_gc90.0_ge0000000000_gh_gf_gg_gd10000000_ha39.39_hb49.1.0.75_hc3.59.39.3.59.39_hd47.1.49.49_ia_if_ib_id_ic_jc_ie_ja_jb_jd_je_jf_jg_ka_kb_kc_kd_ke_kf_la_lb_oa_os_ob_oc_od_oe_of_lc_m00_n00_s00_og_oh_oo_op_oq_or_om_on_ok_ol_oi_oj_ad0.0.0.0.0.0.0.0.0.0
4-victory=47**aa6.91.1.16.41.20.44.1.16.39_ab_ac_ba50_bb6.1_bc575.500.8.0.1_bd6_be180_ca59.0.30.59.35.30.34.0.0_cb0_da1.0.0.100_db_dd13.3.30.50.50.50_dh2.30.50.50.2_di7_qa_qb_dc1.1.1.1.1_eh1.E5AD7E_ea34.E5AD7E.E5AD7E.27.0.0_ec18.41.E5AD7E.E5AD7E.27.35.65.1_ed39.70.0.1.E5AD7E.27_ef_eg_r00_fa7.50.50.50.40.65.56_fb6_fh_fc0.E5AD7E.55.0.E5AD7E.55.50.61.61.50.50.50_fd16.0.25.E5AD7E.56_fe50.50_ff0000000000_fg1.45_pa0.0.0.0.40.50.85.85.0.0_t00_pb_pc_pd_pe_ga0_gb0_gc65.0_ge0000000000_gh_gf_gg_gd10000000_ha100.100_hb49.1.44.95_hc0.59.39.0.59.39_hd28.1.65.65_ia_if_ib_id_ic_jc_ie_ja_jb_jd_je_jf_jg_ka_kb_kc_kd_ke_kf_la_lb_oa_os_ob_oc_od_oe_of_lc_m00_n00_s00_og_oh_oo_op_oq_or_om_on_ok_ol_oi_oj_ad0.0.0.0.0.0.0.0.0.0

5-angry=47**aa31.78.1.16.46.6.92.1.45.61_ab_ac_ba50_bb6.1_bc275.500.8.0.1_bd6_be180_ca59.0.30.59.35.30.34.0.0_cb0_da1.0.0.100_db_dd14.3.30.50.50.50_dh2.30.50.50.2_di7_qa_qb_dc61.1.1.1.1_eh1.E5AD7E_ea34.E5AD7E.E5AD7E.27.0.0_ec18.41.E5AD7E.E5AD7E.27.35.65.1_ed39.70.0.1.E5AD7E.27_ef_eg_r00_fa7.50.50.50.40.65.56_fb6_fh_fc0.E5AD7E.55.0.E5AD7E.55.50.61.61.50.50.50_fd16.0.25.E5AD7E.56_fe50.50_ff0000000000_fg1.45_pa0.0.0.0.40.50.85.85.0.0_t00_pb_pc_pd_pe_ga0_gb0_gc70.0_ge0000000000_gh_gf_gg_gd10000000_ha92.92_hb49.1.44.90_hc2.59.39.2.59.39_hd4.1.49.49_ia_if_ib_id_ic_jc_ie_ja_jb_jd_je_jf_jg_ka_kb_kc_kd_ke_kf_la_lb_oa_os_ob_oc_od_oe_of_lc_m00_n00_s00_og_oh_oo_op_oq_or_om_on_ok_ol_oi_oj_ad0.0.0.0.0.0.0.0.0.0
5-awkward=47**aa6.78.1.16.50.6.93.1.47.56_ab_ac_ba50_bb44.1_bc418.500.8.0.1_bd44_be180_ca59.0.30.59.35.30.34.0.0_cb0_da1.0.0.100_db_dd15.3.30.50.50.50_dh2.30.50.50.2_di7_qa_qb_dc51.1.1.1.1_eh1.E5AD7E_ea34.E5AD7E.E5AD7E.27.0.0_ec18.41.E5AD7E.E5AD7E.27.35.65.1_ed39.70.0.1.E5AD7E.27_ef_eg_r00_fa7.50.50.50.40.65.56_fb6_fh_fc0.E5AD7E.55.0.E5AD7E.55.50.61.61.50.50.50_fd16.0.25.E5AD7E.56_fe50.50_ff0000000000_fg1.45_pa0.0.0.0.40.50.85.85.0.0_t00_pb_pc_pd_pe_ga0_gb0_gc85.0_ge0000000000_gh_gf_gg_gd10000000_ha88.88_hb97.1.70.50_hc0.59.39.0.59.39_hd9.1.49.49_ia_if_ib_id_ic_jc_ie_ja_jb_jd_je_jf_jg_ka_kb_kc_kd_ke_kf_la_lb_oa_os_ob_oc_od_oe_of_lc_m00_n00_s00_og_oh_oo_op_oq_or_om_on_ok_ol_oi_oj_ad0.0.0.0.0.0.0.0.0.0
5-calm=47**aa8.78.1.16.50.6.91.1.45.59_ab_ac_ba50_bb5.1_bc563.500.8.0.1_bd5_be180_ca59.0.30.59.35.30.34.0.0_cb0_da1.0.0.100_db_dd14.3.30.50.50.50_dh2.30.50.50.2_di7_qa_qb_dc62.1.1.1.1_eh1.E5AD7E_ea34.E5AD7E.E5AD7E.27.0.0_ec18.41.E5AD7E.E5AD7E.27.35.65.1_ed39.70.0.1.E5AD7E.27_ef_eg_r00_fa7.50.50.50.40.65.56_fb6_fh_fc0.E5AD7E.55.0.E5AD7E.55.50.61.61.50.50.50_fd16.0.25.E5AD7E.56_fe50.50_ff0000000000_fg1.45_pa0.0.0.0.40.50.85.85.0.0_t00_pb_pc_pd_pe_ga0_gb0_gc70.0_ge0000000000_gh_gf_gg_gd10000000_ha80.80_hb49.1.0.70_hc0.59.39.0.59.39_hd4.1.49.49_ia_if_ib_id_ic_jc_ie_ja_jb_jd_je_jf_jg_ka_kb_kc_kd_ke_kf_la_lb_oa_os_ob_oc_od_oe_of_lc_m00_n00_s00_og_oh_oo_op_oq_or_om_on_ok_ol_oi_oj_ad0.0.0.0.0.0.0.0.0.0
5-embarrassed=47**aa6.69.1.16.25.7.92.1.45.60_ab_ac_ba50_bb45.1_bc708.500.8.0.1_bd45_be180_ca59.0.30.59.35.30.34.0.0_cb0_da1.0.0.100_db_dd15.3.30.50.50.50_dh2.30.50.50.2_di7_qa_qb_dc62.1.1.1.1_eh1.E5AD7E_ea34.E5AD7E.E5AD7E.27.0.0_ec18.41.E5AD7E.E5AD7E.27.35.65.1_ed39.70.0.1.E5AD7E.27_ef_eg_r00_fa7.50.50.50.40.65.56_fb6_fh_fc0.E5AD7E.55.0.E5AD7E.55.50.61.61.50.50.50_fd16.0.25.E5AD7E.56_fe50.50_ff0000000000_fg1.45_pa0.0.0.0.40.50.85.85.0.0_t00_pb_pc_pd_pe_ga0_gb0_gc85.0_ge0000000000_gh_gf_gg_gd10000000_ha56.56_hb49.1.23.30_hc3.59.39.3.59.39_hd9.1.49.49_ia_if_ib_id_ic_jc_ie_ja_jb_jd_je_jf_jg_ka_kb_kc_kd_ke_kf_la_lb_oa_os_ob_oc_od_oe_of_lc_m00_n00_s00_og_oh_oo_op_oq_or_om_on_ok_ol_oi_oj_ad0.0.0.0.0.0.0.0.0.0
5-happy=47**aa6.94.1.42.30.7.92.1.45.60_ab_ac_ba50_bb6.1_bc275.500.8.0.1_bd6_be180_ca59.0.30.59.35.30.34.0.0_cb0_da1.0.0.100_db_dd14.3.30.50.50.50_dh2.30.50.50.2_di7_qa_qb_dc44.1.1.1.1_eh1.E5AD7E_ea34.E5AD7E.E5AD7E.27.0.0_ec18.41.E5AD7E.E5AD7E.27.35.65.1_ed39.70.0.1.E5AD7E.27_ef_eg_r00_fa7.50.50.50.40.65.56_fb6_fh_fc0.E5AD7E.55.0.E5AD7E.55.50.61.61.50.50.50_fd16.0.25.E5AD7E.56_fe50.50_ff0000000000_fg1.45_pa0.0.0.0.40.50.85.85.0.0_t00_pb_pc_pd_pe_ga0_gb0_gc70.0_ge0000000000_gh_gf_gg_gd10000000_ha95.95_hb49.1.44.95_hc1.59.39.1.59.39_hd0.1.49.49_ia_if_ib_id_ic_jc_ie_ja_jb_jd_je_jf_jg_ka_kb_kc_kd_ke_kf_la_lb_oa_os_ob_oc_od_oe_of_lc_m00_n00_s00_og_oh_oo_op_oq_or_om_on_ok_ol_oi_oj_ad0.0.0.0.0.0.0.0.0.0
5-horny=47**aa7.92.1.16.50.7.91.1.49.55_ab_ac_ba50_bb5.1_bc418.500.8.0.1_bd5_be180_ca59.0.30.59.35.30.34.0.0_cb0_da1.0.0.100_db_dd15.3.30.50.50.50_dh2.30.50.50.2_di7_qa_qb_dc52.1.1.1.1_eh1.E5AD7E_ea34.E5AD7E.E5AD7E.27.0.0_ec18.41.E5AD7E.E5AD7E.27.35.65.1_ed39.70.0.1.E5AD7E.27_ef_eg_r00_fa7.50.50.50.40.65.56_fb6_fh_fc0.E5AD7E.55.0.E5AD7E.55.50.61.61.50.50.50_fd16.0.25.E5AD7E.56_fe50.50_ff0000000000_fg1.45_pa0.0.0.0.40.50.85.85.0.0_t00_pb_pc_pd_pe_ga0_gb0_gc90.0_ge0000000000_gh_gf_gg_gd10000000_ha75.75_hb50.1.40.60_hc0.59.39.0.59.39_hd32.1.49.49_ia_if_ib_id_ic_jc_ie_ja_jb_jd_je_jf_jg_ka_kb_kc_kd_ke_kf_la_lb_oa_os_ob_oc_od_oe_of_lc_m00_n00_s00_og_oh_oo_op_oq_or_om_on_ok_ol_oi_oj_ad0.0.0.0.0.0.0.0.0.0
5-interested=47**aa7.82.1.16.50.7.91.1.47.54_ab_ac_ba50_bb5.1_bc563.500.8.0.1_bd5_be180_ca59.0.30.59.35.30.34.0.0_cb0_da1.0.0.100_db_dd15.3.30.50.50.50_dh2.30.50.50.2_di7_qa_qb_dc61.1.1.1.1_eh1.E5AD7E_ea34.E5AD7E.E5AD7E.27.0.0_ec18.41.E5AD7E.E5AD7E.27.35.65.1_ed39.70.0.1.E5AD7E.27_ef_eg_r00_fa7.50.50.50.40.65.56_fb6_fh_fc0.E5AD7E.55.0.E5AD7E.55.50.61.61.50.50.50_fd16.0.25.E5AD7E.56_fe50.50_ff0000000000_fg1.45_pa0.0.0.0.40.50.85.85.0.0_t00_pb_pc_pd_pe_ga0_gb0_gc85.0_ge0000000000_gh_gf_gg_gd10000000_ha82.82_hb49.1.44.85_hc0.59.39.0.59.39_hd17.1.49.49_ia_if_ib_id_ic_jc_ie_ja_jb_jd_je_jf_jg_ka_kb_kc_kd_ke_kf_la_lb_oa_os_ob_oc_od_oe_of_lc_m00_n00_s00_og_oh_oo_op_oq_or_om_on_ok_ol_oi_oj_ad0.0.0.0.0.0.0.0.0.0
5-heavy=47**aa6.92.1.5.55.7.92.1.45.61_ab_ac_ba50_bb45.1_bc708.500.8.0.1_bd45_be180_ca59.0.30.59.35.30.34.0.0_cb0_da1.0.0.100_db_dd14.3.30.50.50.50_dh2.30.50.50.2_di7_qa_qb_dc91.1.1.1.1_eh1.E5AD7E_ea34.E5AD7E.E5AD7E.27.0.0_ec18.41.E5AD7E.E5AD7E.27.35.65.1_ed39.70.0.1.E5AD7E.27_ef_eg_r00_fa7.50.50.50.40.65.56_fb6_fh_fc0.E5AD7E.55.0.E5AD7E.55.50.61.61.50.50.50_fd16.0.25.E5AD7E.56_fe50.50_ff0000000000_fg1.45_pa0.0.0.0.40.50.85.85.0.0_t00_pb_pc_pd_pe_ga0_gb0_gc70.0_ge0000000000_gh_gf_gg_gd10000010_ha60.60_hb49.1.6.60_hc3.59.39.3.59.39_hd39.1.49.49_ia_if_ib_id_ic_jc_ie_ja_jb_jd_je_jf_jg_ka_kb_kc_kd_ke_kf_la_lb_oa_os_ob_oc_od_oe_of_lc_m00_n00_s00_og_oh_oo_op_oq_or_om_on_ok_ol_oi_oj_ad0.0.0.0.0.0.0.0.0.0
5-nervous=47**aa8.92.1.28.50.6.91.1.45.59_ab_ac_ba50_bb43.1_bc275.500.8.0.1_bd43_be180_ca59.0.30.59.35.30.34.0.0_cb0_da1.0.0.100_db_dd15.3.30.50.50.50_dh2.30.50.50.2_di7_qa_qb_dc61.1.1.1.1_eh1.E5AD7E_ea34.E5AD7E.E5AD7E.27.0.0_ec18.41.E5AD7E.E5AD7E.27.35.65.1_ed39.70.0.1.E5AD7E.27_ef_eg_r00_fa7.50.50.50.40.65.56_fb6_fh_fc0.E5AD7E.55.0.E5AD7E.55.50.61.61.50.50.50_fd16.0.25.E5AD7E.56_fe50.50_ff0000000000_fg1.45_pa0.0.0.0.40.50.85.85.0.0_t00_pb_pc_pd_pe_ga0_gb0_gc85.0_ge0000000000_gh_gf_gg_gd10000000_ha81.81_hb49.1.10.60_hc3.59.39.3.59.39_hd10.1.49.49_ia_if_ib_id_ic_jc_ie_ja_jb_jd_je_jf_jg_ka_kb_kc_kd_ke_kf_la_lb_oa_os_ob_oc_od_oe_of_lc_m00_n00_s00_og_oh_oo_op_oq_or_om_on_ok_ol_oi_oj_ad0.0.0.0.0.0.0.0.0.0
5-sad=47**aa7.78.1.16.50.7.91.1.49.55_ab_ac_ba50_bb5.1_bc418.500.8.0.1_bd5_be180_ca59.0.30.59.35.30.34.0.0_cb0_da1.0.0.100_db_dd14.3.30.50.50.50_dh2.30.50.50.2_di7_qa_qb_dc62.1.1.1.1_eh1.E5AD7E_ea34.E5AD7E.E5AD7E.27.0.0_ec18.41.E5AD7E.E5AD7E.27.35.65.1_ed39.70.0.1.E5AD7E.27_ef_eg_r00_fa7.50.50.50.40.65.56_fb6_fh_fc0.E5AD7E.55.0.E5AD7E.55.50.61.61.50.50.50_fd16.0.25.E5AD7E.56_fe50.50_ff0000000000_fg1.45_pa0.0.0.0.40.50.85.85.0.0_t00_pb_pc_pd_pe_ga0_gb0_gc70.0_ge0000000000_gh_gf_gg_gd10000000_ha78.78_hb50.1.50.70_hc3.59.39.3.59.39_hd5.1.49.49_ia_if_ib_id_ic_jc_ie_ja_jb_jd_je_jf_jg_ka_kb_kc_kd_ke_kf_la_lb_oa_os_ob_oc_od_oe_of_lc_m00_n00_s00_og_oh_oo_op_oq_or_om_on_ok_ol_oi_oj_ad0.0.0.0.0.0.0.0.0.0
5-shocked=47**aa8.91.1.26.25.8.92.1.26.28_ab_ac_ba50_bb44.1_bc563.500.8.0.1_bd44_be180_ca59.0.30.59.35.30.34.0.0_cb0_da1.0.0.100_db_dd15.3.30.50.50.50_dh2.30.50.50.2_di7_qa_qb_dc65.1.1.1.1_eh1.E5AD7E_ea34.E5AD7E.E5AD7E.27.0.0_ec18.41.E5AD7E.E5AD7E.27.35.65.1_ed39.70.0.1.E5AD7E.27_ef_eg_r00_fa7.50.50.50.40.65.56_fb6_fh_fc0.E5AD7E.55.0.E5AD7E.55.50.61.61.50.50.50_fd16.0.25.E5AD7E.56_fe50.50_ff0000000000_fg1.45_pa0.0.0.0.40.50.85.85.0.0_t00_pb_pc_pd_pe_ga0_gb0_gc80.0_ge0000000000_gh_gf_gg_gd10000000_ha98.98_hb49.1.25.30_hc0.59.39.0.59.39_hd40.1.60.60_ia_if_ib_id_ic_jc_ie_ja_jb_jd_je_jf_jg_ka_kb_kc_kd_ke_kf_la_lb_oa_os_ob_oc_od_oe_of_lc_m00_n00_s00_og_oh_oo_op_oq_or_om_on_ok_ol_oi_oj_ad0.0.0.0.0.0.0.0.0.0
5-stunned=47**aa6.94.1.16.55.7.93.1.45.58_ab_ac_ba50_bb5.1_bc708.500.8.0.1_bd5_be180_ca59.0.30.59.35.30.34.0.0_cb0_da1.0.0.100_db_dd14.3.30.50.50.50_dh2.30.50.50.2_di7_qa_qb_dc64.1.1.1.1_eh1.E5AD7E_ea34.E5AD7E.E5AD7E.27.0.0_ec18.41.E5AD7E.E5AD7E.27.35.65.1_ed39.70.0.1.E5AD7E.27_ef_eg_r00_fa7.50.50.50.40.65.56_fb6_fh_fc0.E5AD7E.55.0.E5AD7E.55.50.61.61.50.50.50_fd16.0.25.E5AD7E.56_fe50.50_ff0000000000_fg1.45_pa0.0.0.0.40.50.85.85.0.0_t00_pb_pc_pd_pe_ga0_gb0_gc70.0_ge0000000000_gh_gf_gg_gd10000000_ha97.97_hb49.1.35.75_hc0.59.39.0.59.39_hd38.1.49.49_ia_if_ib_id_ic_jc_ie_ja_jb_jd_je_jf_jg_ka_kb_kc_kd_ke_kf_la_lb_oa_os_ob_oc_od_oe_of_lc_m00_n00_s00_og_oh_oo_op_oq_or_om_on_ok_ol_oi_oj_ad0.0.0.0.0.0.0.0.0.0
5-finishing=47**aa6.93.1.47.52.7.92.1.47.52_ab_ac_ba50_bb46.1_bc401.500.8.0.1_bd46_be180_ca59.0.30.59.35.30.34.0.0_cb0_da1.0.0.100_db_dd15.3.30.50.50.50_dh2.30.50.50.2_di7_qa_qb_dc104.1.1.1.1_eh1.E5AD7E_ea34.E5AD7E.E5AD7E.27.0.0_ec18.41.E5AD7E.E5AD7E.27.35.65.1_ed39.70.0.1.E5AD7E.27_ef_eg_r00_fa7.50.50.50.40.65.56_fb6_fh_fc0.E5AD7E.55.0.E5AD7E.55.50.61.61.50.50.50_fd16.0.25.E5AD7E.56_fe50.50_ff0000000000_fg1.45_pa0.0.0.0.40.50.85.85.0.0_t00_pb_pc_pd_pe_ga0_gb0_gc80.0_ge0000000000_gh_gf_gg_gd10000010_ha13.13_hb49.1.0.45_hc3.99.29.3.99.29_hd40.1.80.60_ia_if_ib_id_ic_jc_ie_ja_jb_jd_je_jf_jg_ka_kb_kc_kd_ke_kf_la_lb_oa_os_ob_oc_od_oe_of_lc_m00_n00_s00_og_oh_oo_op_oq_or_om_on_ok_ol_oi_oj_ad0.0.0.0.0.0.0.0.0.0

6-angry=47**aa33.78.1.16.30.33.78.1.16.30_ab_ac_ba50_bb6.1_bc275.500.8.0.1_bd6_be180_ca59.0.30.59.35.30.34.0.0_cb0_da1.0.0.100_db_dd13.3.30.50.50.50_dh2.30.50.50.2_di7_qa_qb_dc122.1.1.1.1_eh1.E5AD7E_ea34.E5AD7E.E5AD7E.27.0.0_ec18.41.E5AD7E.E5AD7E.27.35.65.1_ed39.70.0.1.E5AD7E.27_ef_eg_r00_fa7.50.50.50.40.65.56_fb6_fh_fc0.E5AD7E.55.0.E5AD7E.55.50.61.61.50.50.50_fd16.0.25.E5AD7E.56_fe50.50_ff0000000000_fg1.45_pa0.0.0.0.40.50.85.85.0.0_t00_pb_pc_pd_pe_ga0_gb0_gc60.0_ge0000000000_gh_gf_gg_gd10000000_ha92.92_hb49.1.44.90_hc2.59.39.2.59.39_hd4.1.49.49_ia_if_ib_id_ic_jc_ie_ja_jb_jd_je_jf_jg_ka_kb_kc_kd_ke_kf_la_lb_oa_os_ob_oc_od_oe_of_lc_m00_n00_s00_og_oh_oo_op_oq_or_om_on_ok_ol_oi_oj_ad0.0.0.0.0.0.0.0.0.0
6-awkward=47**aa6.78.1.16.50.6.95.1.47.56_ab_ac_ba50_bb4.1_bc418.500.8.0.1_bd4_be180_ca59.0.30.59.35.30.34.0.0_cb0_da1.0.0.100_db_dd14.3.30.50.50.50_dh2.30.50.50.2_di7_qa_qb_dc111.1.1.1.1_eh1.E5AD7E_ea34.E5AD7E.E5AD7E.27.0.0_ec18.41.E5AD7E.E5AD7E.27.35.65.1_ed39.70.0.1.E5AD7E.27_ef_eg_r00_fa7.50.50.50.40.65.56_fb6_fh_fc0.E5AD7E.55.0.E5AD7E.55.50.61.61.50.50.50_fd16.0.25.E5AD7E.56_fe50.50_ff0000000000_fg1.45_pa0.0.0.0.40.50.85.85.0.0_t00_pb_pc_pd_pe_ga0_gb0_gc85.0_ge0000000000_gh_gf_gg_gd10000000_ha88.88_hb97.1.69.50_hc0.59.39.0.59.39_hd9.1.49.49_ia_if_ib_id_ic_jc_ie_ja_jb_jd_je_jf_jg_ka_kb_kc_kd_ke_kf_la_lb_oa_os_ob_oc_od_oe_of_lc_m00_n00_s00_og_oh_oo_op_oq_or_om_on_ok_ol_oi_oj_ad0.0.0.0.0.0.0.0.0.0
6-calm=47**aa8.76.1.16.50.8.76.1.16.59_ab_ac_ba50_bb5.1_bc563.500.8.0.1_bd5_be180_ca59.0.30.59.35.30.34.0.0_cb0_da1.0.0.100_db_dd13.3.30.50.50.50_dh2.30.50.50.2_di7_qa_qb_dc126.1.1.1.1_eh1.E5AD7E_ea34.E5AD7E.E5AD7E.27.0.0_ec18.41.E5AD7E.E5AD7E.27.35.65.1_ed39.70.0.1.E5AD7E.27_ef_eg_r00_fa7.50.50.50.40.65.56_fb6_fh_fc0.E5AD7E.55.0.E5AD7E.55.50.61.61.50.50.50_fd16.0.25.E5AD7E.56_fe50.50_ff0000000000_fg1.45_pa0.0.0.0.40.50.85.85.0.0_t00_pb_pc_pd_pe_ga0_gb0_gc70.0_ge0000000000_gh_gf_gg_gd10000000_ha80.80_hb49.1.45.70_hc0.59.39.0.59.39_hd0.1.49.49_ia_if_ib_id_ic_jc_ie_ja_jb_jd_je_jf_jg_ka_kb_kc_kd_ke_kf_la_lb_oa_os_ob_oc_od_oe_of_lc_m00_n00_s00_og_oh_oo_op_oq_or_om_on_ok_ol_oi_oj_ad0.0.0.0.0.0.0.0.0.0
6-embarrassed=47**aa6.69.1.16.25.6.92.1.28.41_ab_ac_ba50_bb4.1_bc708.500.8.0.1_bd4_be180_ca59.0.30.59.35.30.34.0.0_cb0_da1.0.0.100_db_dd15.3.30.50.50.50_dh2.30.50.50.2_di7_qa_qb_dc127.1.1.1.1_eh1.E5AD7E_ea34.E5AD7E.E5AD7E.27.0.0_ec18.41.E5AD7E.E5AD7E.27.35.65.1_ed39.70.0.1.E5AD7E.27_ef_eg_r00_fa7.50.50.50.40.65.56_fb6_fh_fc0.E5AD7E.55.0.E5AD7E.55.50.61.61.50.50.50_fd16.0.25.E5AD7E.56_fe50.50_ff0000000000_fg1.45_pa0.0.0.0.40.50.85.85.0.0_t00_pb_pc_pd_pe_ga0_gb0_gc85.0_ge0000000000_gh_gf_gg_gd10000000_ha41.41_hb49.1.23.30_hc3.59.39.3.59.39_hd9.1.49.49_ia_if_ib_id_ic_jc_ie_ja_jb_jd_je_jf_jg_ka_kb_kc_kd_ke_kf_la_lb_oa_os_ob_oc_od_oe_of_lc_m00_n00_s00_og_oh_oo_op_oq_or_om_on_ok_ol_oi_oj_ad0.0.0.0.0.0.0.0.0.0
6-happy=47**aa11.47.1.16.55.11.47.1.16.55_ab_ac_ba50_bb6.1_bc275.500.8.0.1_bd6_be180_ca59.0.30.59.35.30.34.0.0_cb0_da1.0.0.100_db_dd14.3.30.50.50.50_dh2.30.50.50.2_di7_qa_qb_dc132.1.1.1.1_eh1.E5AD7E_ea34.E5AD7E.E5AD7E.27.0.0_ec18.41.E5AD7E.E5AD7E.27.35.65.1_ed39.70.0.1.E5AD7E.27_ef_eg_r00_fa7.50.50.50.40.65.56_fb6_fh_fc0.E5AD7E.55.0.E5AD7E.55.50.61.61.50.50.50_fd16.0.25.E5AD7E.56_fe50.50_ff0000000000_fg1.45_pa0.0.0.0.40.50.85.85.0.0_t00_pb_pc_pd_pe_ga0_gb0_gc70.0_ge0000000000_gh_gf_gg_gd10000000_ha95.95_hb49.1.44.95_hc1.59.39.1.59.39_hd0.1.49.49_ia_if_ib_id_ic_jc_ie_ja_jb_jd_je_jf_jg_ka_kb_kc_kd_ke_kf_la_lb_oa_os_ob_oc_od_oe_of_lc_m00_n00_s00_og_oh_oo_op_oq_or_om_on_ok_ol_oi_oj_ad0.0.0.0.0.0.0.0.0.0
6-horny=47**aa7.92.1.16.50.7.91.1.16.55_ab_ac_ba50_bb4.1_bc418.500.8.0.1_bd4_be180_ca59.0.30.59.35.30.34.0.0_cb0_da1.0.0.100_db_dd15.3.30.50.50.50_dh2.30.50.50.2_di7_qa_qb_dc141.1.1.1.1_eh1.E5AD7E_ea34.E5AD7E.E5AD7E.27.0.0_ec18.41.E5AD7E.E5AD7E.27.35.65.1_ed39.70.0.1.E5AD7E.27_ef_eg_r00_fa7.50.50.50.40.65.56_fb6_fh_fc0.E5AD7E.55.0.E5AD7E.55.50.61.61.50.50.50_fd16.0.25.E5AD7E.56_fe50.50_ff0000000000_fg1.45_pa0.0.0.0.40.50.85.85.0.0_t00_pb_pc_pd_pe_ga0_gb0_gc90.0_ge0000000000_gh_gf_gg_gd10000000_ha75.75_hb50.1.40.60_hc0.59.39.0.59.39_hd32.1.49.49_ia_if_ib_id_ic_jc_ie_ja_jb_jd_je_jf_jg_ka_kb_kc_kd_ke_kf_la_lb_oa_os_ob_oc_od_oe_of_lc_m00_n00_s00_og_oh_oo_op_oq_or_om_on_ok_ol_oi_oj_ad0.0.0.0.0.0.0.0.0.0
6-interested=47**aa7.79.1.16.50.7.79.1.47.54_ab_ac_ba50_bb5.1_bc563.500.8.0.1_bd5_be180_ca59.0.30.59.35.30.34.0.0_cb0_da1.0.0.100_db_dd15.3.30.50.50.50_dh2.30.50.50.2_di7_qa_qb_dc146.1.1.1.1_eh1.E5AD7E_ea34.E5AD7E.E5AD7E.27.0.0_ec18.41.E5AD7E.E5AD7E.27.35.65.1_ed39.70.0.1.E5AD7E.27_ef_eg_r00_fa7.50.50.50.40.65.56_fb6_fh_fc0.E5AD7E.55.0.E5AD7E.55.50.61.61.50.50.50_fd16.0.25.E5AD7E.56_fe50.50_ff0000000000_fg1.45_pa0.0.0.0.40.50.85.85.0.0_t00_pb_pc_pd_pe_ga0_gb0_gc85.0_ge0000000000_gh_gf_gg_gd10000000_ha82.82_hb49.1.44.85_hc0.59.39.0.59.39_hd17.1.49.49_ia_if_ib_id_ic_jc_ie_ja_jb_jd_je_jf_jg_ka_kb_kc_kd_ke_kf_la_lb_oa_os_ob_oc_od_oe_of_lc_m00_n00_s00_og_oh_oo_op_oq_or_om_on_ok_ol_oi_oj_ad0.0.0.0.0.0.0.0.0.0
6-finished=47**aa6.94.1.28.55.7.94.1.28.61_ab_ac_ba50_bb45.1_bc708.500.8.0.1_bd45_be180_ca59.0.30.59.35.30.34.0.0_cb0_da1.0.0.100_db_dd15.3.30.50.50.50_dh2.30.50.50.2_di7_qa_qb_dc176.1.1.1.1_eh1.E5AD7E_ea34.E5AD7E.E5AD7E.27.0.0_ec18.41.E5AD7E.E5AD7E.27.35.65.1_ed39.70.0.1.E5AD7E.27_ef_eg_r00_fa7.50.50.50.40.65.56_fb6_fh_fc0.E5AD7E.55.0.E5AD7E.55.50.61.61.50.50.50_fd16.0.25.E5AD7E.56_fe50.50_ff0000000000_fg1.45_pa0.0.0.0.40.50.85.85.0.0_t00_pb_pc_pd_pe_ga0_gb0_gc90.0_ge0000000000_gh_gf_gg_gd10000010_ha39.39_hb49.1.6.60_hc3.59.39.3.59.39_hd38.1.49.49_ia_if_ib_id_ic_jc_ie_ja_jb_jd_je_jf_jg_ka_kb_kc_kd_ke_kf_la_lb_oa_os_ob_oc_od_oe_of_lc_m00_n00_s00_og_oh_oo_op_oq_or_om_on_ok_ol_oi_oj_ad0.0.0.0.0.0.0.0.0.0
6-nervous=47**aa6.94.1.28.48.6.94.1.28.48_ab_ac_ba50_bb3.1_bc275.500.8.0.1_bd3_be180_ca59.0.30.59.35.30.34.0.0_cb0_da1.0.0.100_db_dd14.3.30.50.50.50_dh2.30.50.50.2_di7_qa_qb_dc132.1.1.1.1_eh1.E5AD7E_ea34.E5AD7E.E5AD7E.27.0.0_ec18.41.E5AD7E.E5AD7E.27.35.65.1_ed39.70.0.1.E5AD7E.27_ef_eg_r00_fa7.50.50.50.40.65.56_fb6_fh_fc0.E5AD7E.55.0.E5AD7E.55.50.61.61.50.50.50_fd16.0.25.E5AD7E.56_fe50.50_ff0000000000_fg1.45_pa0.0.0.0.40.50.85.85.0.0_t00_pb_pc_pd_pe_ga0_gb0_gc80.0_ge0000000000_gh_gf_gg_gd10000000_ha81.81_hb49.1.10.60_hc3.59.39.3.59.39_hd10.1.49.49_ia_if_ib_id_ic_jc_ie_ja_jb_jd_je_jf_jg_ka_kb_kc_kd_ke_kf_la_lb_oa_os_ob_oc_od_oe_of_lc_m00_n00_s00_og_oh_oo_op_oq_or_om_on_ok_ol_oi_oj_ad0.0.0.0.0.0.0.0.0.0
6-sad=47**aa7.78.1.16.50.7.94.1.16.55_ab_ac_ba50_bb5.1_bc418.500.8.0.1_bd5_be180_ca59.0.30.59.35.30.34.0.0_cb0_da1.0.0.100_db_dd13.3.30.50.50.50_dh2.30.50.50.2_di7_qa_qb_dc133.1.1.1.1_eh1.E5AD7E_ea34.E5AD7E.E5AD7E.27.0.0_ec18.41.E5AD7E.E5AD7E.27.35.65.1_ed39.70.0.1.E5AD7E.27_ef_eg_r00_fa7.50.50.50.40.65.56_fb6_fh_fc0.E5AD7E.55.0.E5AD7E.55.50.61.61.50.50.50_fd16.0.25.E5AD7E.56_fe50.50_ff0000000000_fg1.45_pa0.0.0.0.40.50.85.85.0.0_t00_pb_pc_pd_pe_ga0_gb0_gc70.0_ge0000000000_gh_gf_gg_gd10000000_ha78.78_hb50.1.50.70_hc3.59.39.3.59.39_hd5.1.49.49_ia_if_ib_id_ic_jc_ie_ja_jb_jd_je_jf_jg_ka_kb_kc_kd_ke_kf_la_lb_oa_os_ob_oc_od_oe_of_lc_m00_n00_s00_og_oh_oo_op_oq_or_om_on_ok_ol_oi_oj_ad0.0.0.0.0.0.0.0.0.0
6-shocked=47**aa67.39.1.26.27.67.39.1.26.27_ab_ac_ba50_bb4.1_bc563.500.8.0.1_bd4_be180_ca59.0.30.59.35.30.34.0.0_cb0_da1.0.0.100_db_dd14.3.30.50.50.50_dh2.30.50.50.2_di7_qa_qb_dc137.1.1.1.1_eh1.E5AD7E_ea34.E5AD7E.E5AD7E.27.0.0_ec18.41.E5AD7E.E5AD7E.27.35.65.1_ed39.70.0.1.E5AD7E.27_ef_eg_r00_fa7.50.50.50.40.65.56_fb6_fh_fc0.E5AD7E.55.0.E5AD7E.55.50.61.61.50.50.50_fd16.0.25.E5AD7E.56_fe50.50_ff0000000000_fg1.45_pa0.0.0.0.40.50.85.85.0.0_t00_pb_pc_pd_pe_ga0_gb0_gc75.0_ge0000000000_gh_gf_gg_gd10000000_ha98.98_hb49.1.25.30_hc0.59.39.0.59.39_hd40.1.60.60_ia_if_ib_id_ic_jc_ie_ja_jb_jd_je_jf_jg_ka_kb_kc_kd_ke_kf_la_lb_oa_os_ob_oc_od_oe_of_lc_m00_n00_s00_og_oh_oo_op_oq_or_om_on_ok_ol_oi_oj_ad0.0.0.0.0.0.0.0.0.0
6-stunned=47**aa6.97.1.16.55.7.97.1.16.58_ab_ac_ba50_bb5.1_bc708.500.8.0.1_bd5_be180_ca59.0.30.59.35.30.34.0.0_cb0_da1.0.0.100_db_dd13.3.30.50.50.50_dh2.30.50.50.2_di7_qa_qb_dc134.1.1.1.1_eh1.E5AD7E_ea34.E5AD7E.E5AD7E.27.0.0_ec18.41.E5AD7E.E5AD7E.27.35.65.1_ed39.70.0.1.E5AD7E.27_ef_eg_r00_fa7.50.50.50.40.65.56_fb6_fh_fc0.E5AD7E.55.0.E5AD7E.55.50.61.61.50.50.50_fd16.0.25.E5AD7E.56_fe50.50_ff0000000000_fg1.45_pa0.0.0.0.40.50.85.85.0.0_t00_pb_pc_pd_pe_ga0_gb0_gc70.0_ge0000000000_gh_gf_gg_gd10000000_ha97.97_hb49.1.35.75_hc0.59.39.0.59.39_hd38.1.49.49_ia_if_ib_id_ic_jc_ie_ja_jb_jd_je_jf_jg_ka_kb_kc_kd_ke_kf_la_lb_oa_os_ob_oc_od_oe_of_lc_m00_n00_s00_og_oh_oo_op_oq_or_om_on_ok_ol_oi_oj_ad0.0.0.0.0.0.0.0.0.0
6-defeat=47**aa6.94.1.28.48.6.94.1.28.48_ab_ac_ba50_bb4.1_bc493.500.8.0.1_bd4_be180_ca59.0.30.59.35.30.34.0.0_cb0_da1.0.0.100_db_dd14.3.30.50.50.50_dh2.30.50.50.2_di7_qa_qb_dc132.1.1.1.1_eh1.E5AD7E_ea34.E5AD7E.E5AD7E.27.0.0_ec18.41.E5AD7E.E5AD7E.27.35.65.1_ed39.70.0.1.E5AD7E.27_ef_eg_r00_fa7.50.50.50.40.65.56_fb6_fh_fc0.E5AD7E.55.0.E5AD7E.55.50.61.61.50.50.50_fd16.0.25.E5AD7E.56_fe50.50_ff0000000000_fg1.45_pa0.0.0.0.40.50.85.85.0.0_t00_pb_pc_pd_pe_ga0_gb0_gc80.0_ge0000000000_gh_gf_gg_gd10000000_ha86.86_hb49.1.45.80_hc3.59.39.3.59.39_hd12.1.49.49_ia_if_ib_id_ic_jc_ie_ja_jb_jd_je_jf_jg_ka_kb_kc_kd_ke_kf_la_lb_oa_os_ob_oc_od_oe_of_lc_m00_n00_s00_og_oh_oo_op_oq_or_om_on_ok_ol_oi_oj_ad0.0.0.0.0.0.0.0.0.0
