#40***aa6.93.1.45.60.7.95.1.16.50_ab_ac_ba50_bb5.1_bc200.500.8.0.1_bd5_be180_ca62.0.40.62.30.34.34.0.15_cb0_da1.0.0.100_db_dd13.3.41.50.45_dh1.35.50.50.2_di3_qa_qb_dc65.1.1.1.1_eh4.df6f1d_ea2.df6f1d.DF6F1D.ffac4f.1.0_ec6.43.df6f1d.df6f1d.ffac4f.40.64.1_ed28.100.1.1.df6f1d.ffac4f_ef_eg_r0_fa12.55.58.70.50.65.56_fb_fh_fc2.1d7b2d.55.2.1d7b2d.55.50.61.61.50.50.50_fd1.0.50.df6f1d.56_fe80.64_ff0000000000_fg1.50_pa0.0.0.0.40.50.85.85.0.0_t0_pb_pc_pd_pe_ga0_gb1_gc65.0_ge0000000000_gh_gf_gg_gd10100000_ha90.90_hb49.1.44.99_hc0.51.25.0.51.25_hd4.1.49.49_ia_if_ib_id_ic_jc_ie_ja_jb_jd_je_jf_jg_ka_kb_kc_kd_ke_kf_la_lb_oa_os_ob_oc_od_oe_of_lc_m0_n0_s0_og_oh_oo_op_oq_or_om_on_ok_ol_oi_oj_ad0.0.0.0.0.0.0.0.0.0*aa6.93.1.45.60.7.93.1.47.29_ab_ac_ba50_bb5.1_bc320.500.3.0.1_bd5_be180_ca62.0.40.62.30.34.34.0.15_cb0_da1.0.0.100_db_dd13.3.41.50.45_dh1.35.50.50.2_di3_qa_qb_dc53.1.1.1.1_eh4.df6f1d_ea2.df6f1d.DF6F1D.ffac4f.1.0_ec6.43.df6f1d.df6f1d.ffac4f.40.64.1_ed28.100.1.1.df6f1d.ffac4f_ef_eg_r0_fa12.55.58.70.50.65.56_fb_fh_fc2.1d7b2d.55.2.1d7b2d.55.50.61.61.50.50.50_fd1.0.50.df6f1d.56_fe80.64_ff0000000000_fg1.50_pa0.0.0.0.40.50.85.85.0.0_t0_pb_pc_pd_pe_ga0_gb1_gc65.0_ge0000000000_gh_gf_gg_gd10100000_ha80.80_hb49.1.44.99_hc0.50.25.0.50.25_hd16.1.50.48_ia_if_ib_id_ic_jc_ie_ja_jb_jd_je_jf_jg_ka_kb_kc_kd_ke_kf_la_lb_oa_os_ob_oc_od_oe_of_lc_m0_n0_s0_og_oh_oo_op_oq_or_om_on_ok_ol_oi_oj_ad0.0.0.0.0.0.0.0.0.0*aa6.91.1.45.60.13.43.0.16.55_ab_ac_ba50_bb6.1_bc440.500.4.0.1_bd6_be180_ca62.0.40.62.30.34.34.0.15_cb0_da1.0.0.100_db_dd10.3.41.50.45_dh1.35.50.50.2_di3_qa_qb_dc53.1.1.1.1_eh4.df6f1d_ea2.df6f1d.DF6F1D.ffac4f.1.0_ec6.43.df6f1d.df6f1d.ffac4f.40.64.1_ed28.100.1.1.df6f1d.ffac4f_ef_eg_r0_fa12.55.58.70.50.65.56_fb_fh_fc2.1d7b2d.55.2.1d7b2d.55.50.61.61.50.50.50_fd1.0.50.df6f1d.56_fe80.64_ff0000000000_fg1.50_pa0.0.0.0.40.50.85.85.0.0_t0_pb_pc_pd_pe_ga0_gb1_gc40.0_ge0000000000_gh_gf_gg_gd10100000_ha100.100_hb49.1.44.99_hc0.51.25.0.51.25_hd34.1.49.49_ia_if_ib_id_ic_jc_ie_ja_jb_jd_je_jf_jg_ka_kb_kc_kd_ke_kf_la_lb_oa_os_ob_oc_od_oe_of_lc_m0_n0_s0_og_oh_oo_op_oq_or_om_on_ok_ol_oi_oj_ad0.0.0.0.0.0.0.0.0.0*aa6.92.1.45.60.7.86.1.16.50_ab_ac_ba50_bb5.1_bc680.500.6.0.1_bd5_be180_ca62.0.40.62.30.34.34.0.15_cb0_da1.0.0.100_db_dd13.3.41.50.45_dh1.35.50.50.2_di3_qa_qb_dc53.1.1.1.1_eh4.df6f1d_ea2.df6f1d.DF6F1D.ffac4f.1.0_ec6.43.df6f1d.df6f1d.ffac4f.40.64.1_ed28.100.1.1.df6f1d.ffac4f_ef_eg_r0_fa12.55.58.70.50.65.56_fb_fh_fc2.1d7b2d.55.2.1d7b2d.55.50.61.61.50.50.50_fd1.0.50.df6f1d.56_fe80.64_ff0000000000_fg1.50_pa0.0.0.0.40.50.85.85.0.0_t0_pb_pc_pd_pe_ga0_gb1_gc65.0_ge0000000000_gh_gf_gg_gd10100000_ha90.90_hb100.1.40.99_hc0.80.25.0.80.25_hd5.1.49.49_ia_if_ib_id_ic_jc_ie_ja_jb_jd_je_jf_jg_ka_kb_kc_kd_ke_kf_la_lb_oa_os_ob_oc_od_oe_of_lc_m0_n0_s0_og_oh_oo_op_oq_or_om_on_ok_ol_oi_oj_ad0.0.0.0.0.0.0.0.0.0*aa33.79.0.16.24.7.91.1.45.60_ab_ac_ba50_bb5.1_bc800.500.7.0.1_bd5_be180_ca62.0.40.62.30.34.34.0.15_cb0_da1.0.0.100_db_dd13.3.41.50.45_dh1.35.50.50.2_di3_qa_qb_dc75.1.1.1.1_eh4.df6f1d_ea2.df6f1d.DF6F1D.ffac4f.1.0_ec6.43.df6f1d.df6f1d.ffac4f.40.64.1_ed28.100.1.1.df6f1d.ffac4f_ef_eg_r0_fa12.55.58.70.50.65.56_fb_fh_fc2.1d7b2d.55.2.1d7b2d.55.50.61.61.50.50.50_fd1.0.50.df6f1d.56_fe80.64_ff0000000000_fg1.50_pa0.0.0.0.40.50.85.85.0.0_t0_pb_pc_pd_pe_ga0_gb1_gc65.0_ge0000000000_gh_gf_gg_gd10100000_ha90.90_hb49.1.44.99_hc1.35.0.1.35.0_hd4.1.49.49_ia_if_ib_id_ic_jc_ie_ja_jb_jd_je_jf_jg_ka_kb_kc_kd_ke_kf_la_lb_oa_os_ob_oc_od_oe_of_lc_m0_n0_s0_og_oh_oo_op_oq_or_om_on_ok_ol_oi_oj_ad0.0.0.0.0.0.0.0.0.0*0*0*0*aa7.92.1.45.61.7.92.1.16.33_ab_ac_ba50_bb6.1_bc560.500.5.0.1_bd6_be180_ca62.0.40.62.30.34.34.0.15_cb0_da1.0.0.100_db_dd13.3.41.50.45_dh1.35.50.50.2_di3_qa_qb_dc53.1.1.1.1_eh4.df6f1d_ea2.df6f1d.DF6F1D.ffac4f.1.0_ec6.43.df6f1d.df6f1d.ffac4f.40.64.1_ed28.100.1.1.df6f1d.ffac4f_ef_eg_r0_fa12.55.58.70.50.65.56_fb_fh_fc2.1d7b2d.55.2.1d7b2d.55.50.61.61.50.50.50_fd1.0.50.df6f1d.56_fe80.64_ff0000000000_fg1.50_pa0.0.0.0.40.50.85.85.0.0_t0_pb_pc_pd_pe_ga0_gb1_gc65.0_ge0000000000_gh_gf_gg_gd10100000_ha95.95_hb49.1.44.99_hc0.51.25.0.51.25_hd34.1.49.49_ia_if_ib_id_ic_jc_ie_ja_jb_jd_je_jf_jg_ka_kb_kc_kd_ke_kf_la_lb_oa_os_ob_oc_od_oe_of_lc_m0_n0_s0_og_oh_oo_op_oq_or_om_on_ok_ol_oi_oj_ad0.0.0.0.0.0.0.0.0.0#/]a00_b00_c00_d00_w00_x00_y00_z00_ua0.55.0.0.100_uf0.0.0.0_ue_ub_u0_v0_uc0.0.0_ud7.3

5-calm=40**aa6.93.1.45.60.7.95.1.16.50_ab_ac_ba50_bb5.1_bc200.500.8.0.1_bd5_be180_ca62.0.40.62.30.34.34.0.15_cb0_da1.0.0.100_db_dd13.3.41.50.45_dh1.35.50.50.2_di5_qa_qb_dc65.1.1.1.1_eh4.df6f1d_ea2.df6f1d.DF6F1D.ffac4f.1.0_ec6.43.df6f1d.df6f1d.ffac4f.40.64.1_ed28.100.1.1.df6f1d.ffac4f_ef_eg_r0_fa12.55.58.70.50.65.56_fb_fh_fc2.1d7b2d.55.2.1d7b2d.55.50.61.61.50.50.50_fd1.0.50.df6f1d.56_fe80.64_ff0000000000_fg1.50_pa0.0.0.0.40.50.85.85.0.0_t0_pb_pc_pd_pe_ga0_gb1_gc65.0_ge0000000000_gh_gf_gg_gd10100000_ha90.90_hb49.1.44.99_hc0.51.25.0.51.25_hd4.1.49.49_ia_if_ib_id_ic_jc_ie_ja_jb_jd_je_jf_jg_ka_kb_kc_kd_ke_kf_la_lb_oa_os_ob_oc_od_oe_of_lc_m0_n0_s0_og_oh_oo_op_oq_or_om_on_ok_ol_oi_oj_ad0.0.0.0.0.0.0.0.0.0
5-interested=40**aa6.93.1.45.60.7.93.1.47.29_ab_ac_ba50_bb5.1_bc320.500.8.0.1_bd5_be180_ca62.0.40.62.30.34.34.0.15_cb0_da1.0.0.100_db_dd13.3.41.50.45_dh1.35.50.50.2_di5_qa_qb_dc53.1.1.1.1_eh4.df6f1d_ea2.df6f1d.DF6F1D.ffac4f.1.0_ec6.43.df6f1d.df6f1d.ffac4f.40.64.1_ed28.100.1.1.df6f1d.ffac4f_ef_eg_r0_fa12.55.58.70.50.65.56_fb_fh_fc2.1d7b2d.55.2.1d7b2d.55.50.61.61.50.50.50_fd1.0.50.df6f1d.56_fe80.64_ff0000000000_fg1.50_pa0.0.0.0.40.50.85.85.0.0_t0_pb_pc_pd_pe_ga0_gb1_gc65.0_ge0000000000_gh_gf_gg_gd10100000_ha80.80_hb49.1.44.99_hc0.50.25.0.50.25_hd16.1.50.48_ia_if_ib_id_ic_jc_ie_ja_jb_jd_je_jf_jg_ka_kb_kc_kd_ke_kf_la_lb_oa_os_ob_oc_od_oe_of_lc_m0_n0_s0_og_oh_oo_op_oq_or_om_on_ok_ol_oi_oj_ad0.0.0.0.0.0.0.0.0.0
5-excited=40**aa6.91.1.45.60.13.43.0.16.55_ab_ac_ba50_bb6.1_bc440.500.8.0.1_bd6_be180_ca62.0.40.62.30.34.34.0.15_cb0_da1.0.0.100_db_dd10.3.41.50.45_dh1.35.50.50.2_di5_qa_qb_dc53.1.1.1.1_eh4.df6f1d_ea2.df6f1d.DF6F1D.ffac4f.1.0_ec6.43.df6f1d.df6f1d.ffac4f.40.64.1_ed28.100.1.1.df6f1d.ffac4f_ef_eg_r0_fa12.55.58.70.50.65.56_fb_fh_fc2.1d7b2d.55.2.1d7b2d.55.50.61.61.50.50.50_fd1.0.50.df6f1d.56_fe80.64_ff0000000000_fg1.50_pa0.0.0.0.40.50.85.85.0.0_t0_pb_pc_pd_pe_ga0_gb1_gc40.0_ge0000000000_gh_gf_gg_gd10100000_ha100.100_hb49.1.44.99_hc0.51.25.0.51.25_hd34.1.49.49_ia_if_ib_id_ic_jc_ie_ja_jb_jd_je_jf_jg_ka_kb_kc_kd_ke_kf_la_lb_oa_os_ob_oc_od_oe_of_lc_m0_n0_s0_og_oh_oo_op_oq_or_om_on_ok_ol_oi_oj_ad0.0.0.0.0.0.0.0.0.0
5-happy=40**aa7.92.1.45.61.7.92.1.16.33_ab_ac_ba50_bb6.1_bc560.500.8.0.1_bd6_be180_ca62.0.40.62.30.34.34.0.15_cb0_da1.0.0.100_db_dd13.3.41.50.45_dh1.35.50.50.2_di5_qa_qb_dc53.1.1.1.1_eh4.df6f1d_ea2.df6f1d.DF6F1D.ffac4f.1.0_ec6.43.df6f1d.df6f1d.ffac4f.40.64.1_ed28.100.1.1.df6f1d.ffac4f_ef_eg_r0_fa12.55.58.70.50.65.56_fb_fh_fc2.1d7b2d.55.2.1d7b2d.55.50.61.61.50.50.50_fd1.0.50.df6f1d.56_fe80.64_ff0000000000_fg1.50_pa0.0.0.0.40.50.85.85.0.0_t0_pb_pc_pd_pe_ga0_gb1_gc65.0_ge0000000000_gh_gf_gg_gd10100000_ha95.95_hb49.1.44.99_hc0.51.25.0.51.25_hd34.1.49.49_ia_if_ib_id_ic_jc_ie_ja_jb_jd_je_jf_jg_ka_kb_kc_kd_ke_kf_la_lb_oa_os_ob_oc_od_oe_of_lc_m0_n0_s0_og_oh_oo_op_oq_or_om_on_ok_ol_oi_oj_ad0.0.0.0.0.0.0.0.0.0
5-sad=40**aa6.92.1.45.60.7.86.1.16.50_ab_ac_ba50_bb5.1_bc680.500.8.0.1_bd5_be180_ca62.0.40.62.30.34.34.0.15_cb0_da1.0.0.100_db_dd13.3.41.50.45_dh1.35.50.50.2_di5_qa_qb_dc53.1.1.1.1_eh4.df6f1d_ea2.df6f1d.DF6F1D.ffac4f.1.0_ec6.43.df6f1d.df6f1d.ffac4f.40.64.1_ed28.100.1.1.df6f1d.ffac4f_ef_eg_r0_fa12.55.58.70.50.65.56_fb_fh_fc2.1d7b2d.55.2.1d7b2d.55.50.61.61.50.50.50_fd1.0.50.df6f1d.56_fe80.64_ff0000000000_fg1.50_pa0.0.0.0.40.50.85.85.0.0_t0_pb_pc_pd_pe_ga0_gb1_gc65.0_ge0000000000_gh_gf_gg_gd10100000_ha90.90_hb100.1.40.99_hc0.80.25.0.80.25_hd5.1.49.49_ia_if_ib_id_ic_jc_ie_ja_jb_jd_je_jf_jg_ka_kb_kc_kd_ke_kf_la_lb_oa_os_ob_oc_od_oe_of_lc_m0_n0_s0_og_oh_oo_op_oq_or_om_on_ok_ol_oi_oj_ad0.0.0.0.0.0.0.0.0.0
5-angry=40**aa33.79.0.16.24.7.91.1.45.60_ab_ac_ba50_bb5.1_bc800.500.8.0.1_bd5_be180_ca62.0.40.62.30.34.34.0.15_cb0_da1.0.0.100_db_dd13.3.41.50.45_dh1.35.50.50.2_di5_qa_qb_dc75.1.1.1.1_eh4.df6f1d_ea2.df6f1d.DF6F1D.ffac4f.1.0_ec6.43.df6f1d.df6f1d.ffac4f.40.64.1_ed28.100.1.1.df6f1d.ffac4f_ef_eg_r0_fa12.55.58.70.50.65.56_fb_fh_fc2.1d7b2d.55.2.1d7b2d.55.50.61.61.50.50.50_fd1.0.50.df6f1d.56_fe80.64_ff0000000000_fg1.50_pa0.0.0.0.40.50.85.85.0.0_t0_pb_pc_pd_pe_ga0_gb1_gc65.0_ge0000000000_gh_gf_gg_gd10100000_ha90.90_hb49.1.44.99_hc1.35.0.1.35.0_hd4.1.49.49_ia_if_ib_id_ic_jc_ie_ja_jb_jd_je_jf_jg_ka_kb_kc_kd_ke_kf_la_lb_oa_os_ob_oc_od_oe_of_lc_m0_n0_s0_og_oh_oo_op_oq_or_om_on_ok_ol_oi_oj_ad0.0.0.0.0.0.0.0.0.0
